%!PS-Adobe-3.0 EPSF-3.0
%%Creator: cairo 1.16.0 (https://cairographics.org)
%%CreationDate: Mon Sep 18 19:17:23 2023
%%Pages: 1
%%DocumentData: Clean7Bit
%%LanguageLevel: 2
%%BoundingBox: 0 0 114 114
%%EndComments
%%BeginProlog
50 dict begin
/q { gsave } bind def
/Q { grestore } bind def
/cm { 6 array astore concat } bind def
/w { setlinewidth } bind def
/J { setlinecap } bind def
/j { setlinejoin } bind def
/M { setmiterlimit } bind def
/d { setdash } bind def
/m { moveto } bind def
/l { lineto } bind def
/c { curveto } bind def
/h { closepath } bind def
/re { exch dup neg 3 1 roll 5 3 roll moveto 0 rlineto
      0 exch rlineto 0 rlineto closepath } bind def
/S { stroke } bind def
/f { fill } bind def
/f* { eofill } bind def
/n { newpath } bind def
/W { clip } bind def
/W* { eoclip } bind def
/BT { } bind def
/ET { } bind def
/BDC { mark 3 1 roll /BDC pdfmark } bind def
/EMC { mark /EMC pdfmark } bind def
/cairo_store_point { /cairo_point_y exch def /cairo_point_x exch def } def
/Tj { show currentpoint cairo_store_point } bind def
/TJ {
  {
    dup
    type /stringtype eq
    { show } { -0.001 mul 0 cairo_font_matrix dtransform rmoveto } ifelse
  } forall
  currentpoint cairo_store_point
} bind def
/cairo_selectfont { cairo_font_matrix aload pop pop pop 0 0 6 array astore
    cairo_font exch selectfont cairo_point_x cairo_point_y moveto } bind def
/Tf { pop /cairo_font exch def /cairo_font_matrix where
      { pop cairo_selectfont } if } bind def
/Td { matrix translate cairo_font_matrix matrix concatmatrix dup
      /cairo_font_matrix exch def dup 4 get exch 5 get cairo_store_point
      /cairo_font where { pop cairo_selectfont } if } bind def
/Tm { 2 copy 8 2 roll 6 array astore /cairo_font_matrix exch def
      cairo_store_point /cairo_font where { pop cairo_selectfont } if } bind def
/g { setgray } bind def
/rg { setrgbcolor } bind def
/d1 { setcachedevice } bind def
/cairo_data_source {
  CairoDataIndex CairoData length lt
    { CairoData CairoDataIndex get /CairoDataIndex CairoDataIndex 1 add def }
    { () } ifelse
} def
/cairo_flush_ascii85_file { cairo_ascii85_file status { cairo_ascii85_file flushfile } if } def
/cairo_image { image cairo_flush_ascii85_file } def
/cairo_imagemask { imagemask cairo_flush_ascii85_file } def
%%EndProlog
%%BeginSetup
%%EndSetup
%%Page: 1 1
%%BeginPageSetup
%%PageBoundingBox: 0 0 114 114
%%EndPageSetup
q 0 0 114 114 rectclip
1 0 0 -1 0 114 cm q
0.113725 0.137255 0.137255 rg
0 57 m 0 25.52 25.52 0 57 0 c 88.48 0 114 25.52 114 57 c 114 88.48 88.48
 114 57 114 c 25.52 114 0 88.48 0 57 c h
94.566 31.5 m 94.984 31.082 95.195 30.543 95.195 29.875 c 95.195 29.375
 94.984 28.832 94.57 28.25 c 94.07 27.668 92.965 26.48 91.258 24.688 c 89.547
 22.895 87.715 21.043 85.754 19.121 c 83.797 17.207 81.984 15.496 80.316
 13.996 c 78.648 12.496 77.566 11.746 77.066 11.746 c 76.398 11.746 75.859
 11.957 75.441 12.371 c 75.023 12.789 74.816 13.332 74.816 13.996 c 74.816
 14.746 74.98 15.395 75.316 15.934 c 75.648 16.48 76.023 17.02 76.441 17.559
 c 76.855 18.102 77.23 18.645 77.566 19.184 c 77.898 19.727 78.066 20.371
 78.066 21.121 c 78.066 22.207 77.691 23.125 76.941 23.875 c 61.062 39.75
 l 61.062 16.496 l 61.062 14.996 61.562 13.996 62.562 13.496 c 63.566 12.996
 64.691 12.621 65.938 12.371 c 67.188 12.121 68.316 11.828 69.312 11.496
 c 70.312 11.164 70.816 10.453 70.816 9.371 c 70.816 8.703 70.586 8.164 
70.129 7.746 c 69.668 7.328 69.105 7.121 68.441 7.121 c 46.062 7.121 l 45.395
 7.121 44.852 7.328 44.438 7.746 c 44.02 8.164 43.812 8.703 43.812 9.371
 c 43.812 10.371 44.289 11.039 45.25 11.371 c 46.207 11.707 47.25 12.02 
48.375 12.309 c 49.5 12.602 50.543 13.02 51.504 13.559 c 52.461 14.102 52.941
 15.082 52.941 16.496 c 52.941 39.875 l 37.062 23.875 l 36.312 23.125 35.938
 22.207 35.938 21.121 c 35.938 20.371 36.125 19.707 36.5 19.121 c 36.875
 18.539 37.293 17.953 37.75 17.371 c 38.207 16.789 38.625 16.207 39 15.621
 c 39.375 15.039 39.562 14.371 39.562 13.621 c 39.562 12.957 39.355 12.414
 38.938 11.996 c 38.52 11.582 37.98 11.371 37.312 11.371 c 36.812 11.371
 35.727 12.121 34.062 13.621 c 32.395 15.121 30.582 16.832 28.625 18.746
 c 26.664 20.664 24.828 22.52 23.125 24.312 c 21.414 26.105 20.309 27.293
 19.809 27.875 c 19.391 28.457 19.184 29 19.184 29.5 c 19.184 30.168 19.391
 30.707 19.809 31.125 c 20.227 31.543 20.766 31.75 21.438 31.75 c 22.184
 31.75 22.832 31.582 23.371 31.25 c 23.914 30.918 24.453 30.543 24.996 30.125
 c 25.539 29.707 26.078 29.332 26.621 29 c 27.164 28.668 27.809 28.5 28.559
 28.5 c 29.645 28.5 30.559 28.875 31.309 29.625 c 51.312 49.5 l 31.309 69.504
 l 30.559 70.254 29.641 70.629 28.559 70.629 c 27.809 70.629 27.141 70.441
 26.559 70.066 c 25.977 69.691 25.391 69.273 24.809 68.816 c 24.227 68.359
 23.641 67.941 23.059 67.566 c 22.473 67.191 21.809 67.004 21.059 67.004
 c 20.391 67.004 19.848 67.211 19.434 67.629 c 19.016 68.047 18.809 68.586
 18.809 69.254 c 18.809 69.754 19.559 70.84 21.059 72.504 c 22.559 74.172
 24.266 75.984 26.184 77.941 c 28.098 79.902 29.953 81.734 31.746 83.445
 c 33.539 85.152 34.727 86.258 35.309 86.758 c 35.891 87.176 36.434 87.383
 36.934 87.383 c 37.598 87.383 38.141 87.152 38.559 86.695 c 38.977 86.234
 39.184 85.715 39.184 85.133 c 39.184 84.383 39.016 83.734 38.684 83.195
 c 38.352 82.652 37.977 82.113 37.559 81.57 c 37.141 81.027 36.766 80.488
 36.434 79.945 c 36.102 79.402 35.934 78.758 35.934 78.008 c 35.934 77.508
 36.016 77.008 36.184 76.508 c 36.352 76.008 36.641 75.59 37.062 75.258 
c 52.938 59.254 l 52.938 97.133 l 52.938 98.637 52.438 99.637 51.438 100.137
 c 50.438 100.633 49.312 101.012 48.062 101.262 c 46.812 101.512 45.688 
101.805 44.684 102.137 c 43.688 102.469 43.188 103.18 43.188 104.262 c 43.188
 104.848 43.414 105.367 43.875 105.824 c 44.332 106.285 44.895 106.512 45.562
 106.512 c 67.941 106.512 l 68.605 106.512 69.148 106.285 69.566 105.824
 c 69.98 105.367 70.191 104.844 70.191 104.262 c 70.191 103.18 69.711 102.469
 68.754 102.137 c 67.793 101.805 66.754 101.492 65.629 101.199 c 64.504 
100.906 63.457 100.512 62.5 100.012 c 61.543 99.512 61.062 98.551 61.062
 97.137 c 61.062 59.254 l 76.941 75.258 l 77.355 75.59 77.648 76.008 77.816
 76.508 c 77.98 77.008 78.066 77.508 78.066 78.008 c 78.066 78.758 77.879
 79.426 77.504 80.008 c 77.125 80.59 76.711 81.176 76.254 81.758 c 75.793
 82.34 75.375 82.926 75 83.508 c 74.629 84.09 74.438 84.758 74.438 85.508
 c 74.438 86.176 74.645 86.715 75.066 87.133 c 75.48 87.551 76.02 87.758
 76.691 87.758 c 77.191 87.758 78.273 87.008 79.941 85.508 c 81.605 84.008
 83.418 82.301 85.379 80.383 c 87.336 78.465 89.172 76.613 90.879 74.82 
c 92.586 73.027 93.695 71.84 94.191 71.254 c 94.609 70.676 94.82 70.129 
94.82 69.633 c 94.82 68.965 94.586 68.426 94.129 68.008 c 93.672 67.59 93.148
 67.379 92.566 67.379 c 91.816 67.379 91.172 67.547 90.629 67.879 c 90.086
 68.215 89.547 68.59 89.004 69.004 c 88.465 69.422 87.922 69.801 87.379 
70.129 c 86.84 70.465 86.191 70.629 85.441 70.629 c 84.359 70.629 83.441
 70.258 82.691 69.504 c 62.688 49.504 l 82.691 29.625 l 83.441 28.875 84.359
 28.5 85.441 28.5 c 86.191 28.5 86.859 28.688 87.445 29.062 c 88.027 29.438
 88.609 29.855 89.195 30.312 c 89.773 30.77 90.359 31.188 90.945 31.562 
c 91.523 31.938 92.191 32.125 92.945 32.125 c 93.609 32.125 94.152 31.918
 94.566 31.5 c h
94.566 31.5 m f
Q Q
showpage
%%Trailer
end
%%EOF
