%!PS-Adobe-3.0 EPSF-3.0
%%Creator: cairo 1.16.0 (https://cairographics.org)
%%CreationDate: Mon Sep 18 19:17:26 2023
%%Pages: 1
%%DocumentData: Clean7Bit
%%LanguageLevel: 2
%%BoundingBox: 0 0 194 194
%%EndComments
%%BeginProlog
50 dict begin
/q { gsave } bind def
/Q { grestore } bind def
/cm { 6 array astore concat } bind def
/w { setlinewidth } bind def
/J { setlinecap } bind def
/j { setlinejoin } bind def
/M { setmiterlimit } bind def
/d { setdash } bind def
/m { moveto } bind def
/l { lineto } bind def
/c { curveto } bind def
/h { closepath } bind def
/re { exch dup neg 3 1 roll 5 3 roll moveto 0 rlineto
      0 exch rlineto 0 rlineto closepath } bind def
/S { stroke } bind def
/f { fill } bind def
/f* { eofill } bind def
/n { newpath } bind def
/W { clip } bind def
/W* { eoclip } bind def
/BT { } bind def
/ET { } bind def
/BDC { mark 3 1 roll /BDC pdfmark } bind def
/EMC { mark /EMC pdfmark } bind def
/cairo_store_point { /cairo_point_y exch def /cairo_point_x exch def } def
/Tj { show currentpoint cairo_store_point } bind def
/TJ {
  {
    dup
    type /stringtype eq
    { show } { -0.001 mul 0 cairo_font_matrix dtransform rmoveto } ifelse
  } forall
  currentpoint cairo_store_point
} bind def
/cairo_selectfont { cairo_font_matrix aload pop pop pop 0 0 6 array astore
    cairo_font exch selectfont cairo_point_x cairo_point_y moveto } bind def
/Tf { pop /cairo_font exch def /cairo_font_matrix where
      { pop cairo_selectfont } if } bind def
/Td { matrix translate cairo_font_matrix matrix concatmatrix dup
      /cairo_font_matrix exch def dup 4 get exch 5 get cairo_store_point
      /cairo_font where { pop cairo_selectfont } if } bind def
/Tm { 2 copy 8 2 roll 6 array astore /cairo_font_matrix exch def
      cairo_store_point /cairo_font where { pop cairo_selectfont } if } bind def
/g { setgray } bind def
/rg { setrgbcolor } bind def
/d1 { setcachedevice } bind def
/cairo_data_source {
  CairoDataIndex CairoData length lt
    { CairoData CairoDataIndex get /CairoDataIndex CairoDataIndex 1 add def }
    { () } ifelse
} def
/cairo_flush_ascii85_file { cairo_ascii85_file status { cairo_ascii85_file flushfile } if } def
/cairo_image { image cairo_flush_ascii85_file } def
/cairo_imagemask { imagemask cairo_flush_ascii85_file } def
%%EndProlog
%%BeginSetup
%%EndSetup
%%Page: 1 1
%%BeginPageSetup
%%PageBoundingBox: 0 0 194 194
%%EndPageSetup
q 0 0 194 194 rectclip
1 0 0 -1 0 194 cm q
1 g
39.957 96.75 m 39.957 65.387 65.387 39.957 96.75 39.957 c 128.113 39.957
 153.539 65.387 153.539 96.75 c 153.539 128.113 128.113 153.539 96.75 153.539
 c 65.387 153.539 39.957 128.113 39.957 96.75 c h
134.18 71.344 m 134.598 70.93 134.805 70.391 134.805 69.723 c 134.805 69.227
 134.598 68.688 134.18 68.105 c 133.684 67.523 132.582 66.34 130.879 64.555
 c 129.18 62.77 127.352 60.922 125.398 59.012 c 123.449 57.102 121.641 55.398
 119.984 53.906 c 118.316 52.41 117.242 51.664 116.742 51.664 c 116.078 
51.664 115.539 51.871 115.125 52.285 c 114.707 52.703 114.5 53.242 114.5
 53.906 c 114.5 54.652 114.664 55.297 115 55.836 c 115.328 56.379 115.703
 56.914 116.121 57.453 c 116.535 57.996 116.906 58.535 117.242 59.074 c 
117.57 59.613 117.738 60.258 117.738 61.004 c 117.738 62.086 117.363 62.996
 116.617 63.746 c 100.797 79.562 l 100.797 56.395 l 100.797 54.902 101.297
 53.902 102.293 53.406 c 103.289 52.906 104.41 52.535 105.656 52.285 c 106.902
 52.035 108.023 51.746 109.02 51.414 c 110.016 51.082 110.516 50.375 110.516
 49.297 c 110.516 48.633 110.285 48.094 109.828 47.676 c 109.371 47.262 
108.812 47.055 108.148 47.055 c 85.852 47.055 l 85.188 47.055 84.648 47.262
 84.234 47.676 c 83.816 48.094 83.609 48.633 83.609 49.297 c 83.609 50.293
 84.086 50.957 85.043 51.289 c 85.996 51.621 87.035 51.934 88.156 52.223
 c 89.277 52.516 90.316 52.93 91.273 53.469 c 92.227 54.012 92.707 54.984
 92.707 56.395 c 92.707 79.688 l 76.887 63.746 l 76.137 62.996 75.766 62.082
 75.766 61.004 c 75.766 60.258 75.953 59.594 76.324 59.012 c 76.699 58.43
 77.113 57.848 77.57 57.266 c 78.027 56.688 78.445 56.105 78.816 55.523 
c 79.191 54.945 79.375 54.277 79.375 53.531 c 79.375 52.867 79.168 52.328
 78.754 51.91 c 78.34 51.496 77.801 51.289 77.133 51.289 c 76.637 51.289
 75.555 52.035 73.895 53.531 c 72.234 55.027 70.43 56.727 68.477 58.637 
c 66.527 60.547 64.695 62.395 62.996 64.18 c 61.293 65.969 60.195 67.152
 59.695 67.73 c 59.277 68.312 59.074 68.852 59.074 69.348 c 59.074 70.016
 59.281 70.555 59.695 70.969 c 60.109 71.387 60.648 71.59 61.316 71.59 c
 62.062 71.59 62.707 71.426 63.246 71.094 c 63.785 70.762 64.324 70.391 
64.863 69.973 c 65.402 69.559 65.941 69.184 66.484 68.852 c 67.023 68.52
 67.664 68.355 68.414 68.355 c 69.492 68.355 70.406 68.727 71.152 69.477
 c 91.082 89.277 l 71.152 109.207 l 70.406 109.957 69.492 110.328 68.414
 110.328 c 67.664 110.328 67 110.141 66.418 109.766 c 65.84 109.395 65.258
 108.98 64.676 108.523 c 64.094 108.066 63.516 107.648 62.934 107.277 c 
62.352 106.902 61.688 106.715 60.938 106.715 c 60.273 106.715 59.734 106.926
 59.32 107.34 c 58.906 107.754 58.695 108.293 58.695 108.957 c 58.695 109.457
 59.445 110.539 60.938 112.199 c 62.434 113.859 64.133 115.664 66.047 117.613
 c 67.953 119.566 69.805 121.395 71.59 123.098 c 73.375 124.801 74.559 125.898
 75.141 126.398 c 75.719 126.812 76.262 127.02 76.758 127.02 c 77.422 127.02
 77.961 126.793 78.375 126.336 c 78.793 125.879 79 125.359 79 124.777 c 
79 124.031 78.832 123.387 78.504 122.848 c 78.168 122.309 77.797 121.77 
77.383 121.227 c 76.965 120.691 76.59 120.152 76.262 119.609 c 75.926 119.07
 75.762 118.426 75.762 117.68 c 75.762 117.18 75.844 116.684 76.012 116.184
 c 76.176 115.688 76.465 115.273 76.883 114.938 c 92.703 98.996 l 92.703
 136.738 l 92.703 138.234 92.203 139.23 91.207 139.727 c 90.211 140.223 
89.09 140.598 87.844 140.848 c 86.598 141.098 85.477 141.391 84.48 141.719
 c 83.484 142.051 82.988 142.758 82.988 143.836 c 82.988 144.422 83.215 
144.941 83.672 145.395 c 84.129 145.852 84.688 146.078 85.355 146.078 c 
107.652 146.078 l 108.312 146.078 108.852 145.852 109.27 145.395 c 109.684
 144.938 109.895 144.418 109.895 143.836 c 109.895 142.758 109.414 142.051
 108.461 141.719 c 107.504 141.391 106.469 141.078 105.348 140.785 c 104.227
 140.496 103.184 140.102 102.23 139.602 c 101.273 139.105 100.797 138.148
 100.797 136.738 c 100.797 98.996 l 116.617 114.938 l 117.031 115.273 117.32
 115.688 117.488 116.184 c 117.652 116.684 117.738 117.18 117.738 117.68
 c 117.738 118.426 117.551 119.094 117.176 119.672 c 116.805 120.254 116.387
 120.836 115.93 121.418 c 115.473 121.996 115.059 122.578 114.684 123.16
 c 114.312 123.742 114.125 124.406 114.125 125.152 c 114.125 125.816 114.332
 126.355 114.75 126.773 c 115.164 127.188 115.703 127.395 116.367 127.395
 c 116.867 127.395 117.945 126.648 119.605 125.152 c 121.266 123.66 123.07
 121.957 125.023 120.047 c 126.977 118.137 128.801 116.289 130.508 114.504
 c 132.207 112.719 133.309 111.535 133.805 110.953 c 134.219 110.375 134.43
 109.832 134.43 109.336 c 134.43 108.672 134.199 108.133 133.746 107.715
 c 133.285 107.301 132.766 107.094 132.188 107.094 c 131.438 107.094 130.797
 107.258 130.258 107.59 c 129.715 107.922 129.176 108.297 128.637 108.711
 c 128.098 109.129 127.559 109.5 127.02 109.832 c 126.48 110.164 125.836
 110.328 125.086 110.328 c 124.008 110.328 123.098 109.957 122.348 109.207
 c 102.418 89.281 l 122.348 69.473 l 123.094 68.727 124.008 68.352 125.086
 68.352 c 125.836 68.352 126.5 68.539 127.082 68.914 c 127.66 69.289 128.242
 69.703 128.824 70.16 c 129.402 70.617 129.988 71.031 130.57 71.406 c 131.148
 71.781 131.812 71.965 132.562 71.965 c 133.223 71.965 133.766 71.758 134.18
 71.344 c h
134.18 71.344 m f
24.984 82.074 m 24.512 81.945 l 24.59 81.625 24.641 81.367 24.656 81.16
 c 24.672 80.953 24.645 80.785 24.57 80.648 c 24.496 80.512 24.375 80.398
 24.207 80.312 c 24.039 80.227 23.805 80.141 23.508 80.059 c 17.711 78.449
 l 17.422 78.371 17.184 78.32 16.996 78.297 c 16.812 78.277 16.656 78.297
 16.527 78.355 c 16.398 78.414 16.293 78.52 16.211 78.676 c 16.125 78.832
 16.039 79.039 15.949 79.301 c 15.477 79.168 l 16.688 74.805 l 16.895 74.059
 17.211 73.402 17.637 72.836 c 18.062 72.27 18.559 71.82 19.125 71.48 c 
19.691 71.145 20.312 70.93 20.988 70.84 c 21.664 70.75 22.359 70.805 23.074
 71.004 c 23.754 71.191 24.344 71.484 24.844 71.883 c 25.348 72.281 25.738
 72.754 26.027 73.305 c 26.312 73.852 26.484 74.461 26.543 75.129 c 26.605
 75.797 26.535 76.492 26.332 77.211 c h
16.852 76.578 m 16.812 76.719 16.863 76.809 17.004 76.848 c 23.734 78.715
 l 24.68 78.977 25.324 78.488 25.664 77.254 c 25.98 76.117 25.883 75.156
 25.375 74.363 c 24.867 73.57 23.961 72.992 22.648 72.629 c 21.961 72.438
 21.324 72.348 20.742 72.367 c 20.156 72.383 19.633 72.492 19.176 72.699
 c 18.715 72.91 18.324 73.203 18.004 73.59 c 17.684 73.973 17.445 74.441
 17.289 74.996 c h
16.852 76.578 m f
25.559 63.41 m 25.762 62.992 25.91 62.633 25.996 62.324 c 26.086 62.02 
26.113 61.754 26.086 61.535 c 26.059 61.316 25.98 61.129 25.848 60.973 c
 25.711 60.816 25.527 60.68 25.297 60.566 c 25.496 60.16 l 28.66 61.707 
l 28.461 62.113 l 28.23 62 28.012 61.938 27.812 61.918 c 27.609 61.902 27.41
 61.949 27.219 62.059 c 27.023 62.172 26.828 62.355 26.633 62.605 c 26.438
 62.859 26.234 63.203 26.023 63.637 c 28.645 64.918 l 28.898 65.043 29.125
 65.117 29.32 65.133 c 29.516 65.152 29.703 65.113 29.883 65.016 c 30.059
 64.914 30.23 64.75 30.395 64.523 c 30.559 64.297 30.727 64.004 30.906 63.641
 c 31.105 63.23 31.246 62.867 31.328 62.555 c 31.41 62.238 31.43 61.953 
31.387 61.691 c 31.34 61.43 31.23 61.184 31.062 60.957 c 30.891 60.73 30.652
 60.496 30.352 60.25 c 30.566 59.809 l 32.766 61.102 l 29.246 68.301 l 28.805
 68.086 l 28.93 67.812 29.012 67.582 29.055 67.398 c 29.098 67.211 29.094
 67.051 29.047 66.91 c 29 66.773 28.898 66.648 28.746 66.535 c 28.59 66.418
 28.375 66.297 28.105 66.164 c 22.703 63.523 l 22.434 63.391 22.207 63.297
 22.027 63.242 c 21.848 63.188 21.691 63.18 21.555 63.215 c 21.418 63.246
 21.293 63.332 21.184 63.469 c 21.074 63.609 20.949 63.797 20.812 64.035
 c 20.375 63.82 l 23.648 57.117 l 25.742 58.012 l 25.543 58.418 l 25.211
 58.312 24.922 58.266 24.672 58.273 c 24.426 58.281 24.199 58.348 23.992
 58.473 c 23.789 58.598 23.594 58.789 23.414 59.043 c 23.23 59.297 23.043
 59.625 22.852 60.02 c 22.129 61.492 l 22.066 61.621 22.098 61.719 22.23
 61.785 c h
25.559 63.41 m f
37.043 47.867 m 37.586 48.273 38.027 48.68 38.363 49.098 c 38.699 49.512
 38.918 49.941 39.016 50.383 c 39.117 50.828 39.098 51.289 38.957 51.777
 c 38.816 52.262 38.547 52.773 38.148 53.312 c 37.77 53.824 37.387 54.234
 37.008 54.539 c 36.625 54.844 36.223 55.039 35.801 55.125 c 35.379 55.207
 34.938 55.176 34.473 55.023 c 34.008 54.871 33.5 54.594 32.953 54.188 c
 30.215 52.16 l 29.703 51.781 29.301 51.5 29.008 51.32 c 28.711 51.141 28.457
 51.059 28.238 51.078 c 28.086 51.094 27.941 51.164 27.805 51.281 c 27.672
 51.398 27.516 51.578 27.34 51.812 c 26.945 51.52 l 29.566 47.984 l 29.961
 48.277 l 29.785 48.512 29.66 48.711 29.578 48.875 c 29.5 49.043 29.484 
49.207 29.535 49.371 c 29.586 49.562 29.738 49.77 29.992 50 c 30.242 50.23
 30.625 50.535 31.137 50.914 c 33.957 53.004 l 34.312 53.266 34.652 53.461
 34.977 53.59 c 35.305 53.719 35.625 53.773 35.938 53.746 c 36.25 53.723
 36.555 53.613 36.848 53.418 c 37.141 53.223 37.434 52.934 37.719 52.547
 c 38.23 51.855 38.426 51.195 38.297 50.562 c 38.168 49.934 37.73 49.344
 36.984 48.789 c 34.484 46.938 l 33.871 46.48 33.387 46.16 33.031 45.973
 c 32.68 45.785 32.387 45.711 32.156 45.742 c 31.996 45.773 31.852 45.852
 31.719 45.98 c 31.586 46.105 31.441 46.277 31.281 46.492 c 30.887 46.199
 l 33.117 43.191 l 33.512 43.484 l 33.348 43.707 33.23 43.898 33.16 44.066
 c 33.09 44.234 33.082 44.402 33.137 44.574 c 33.207 44.785 33.379 45.023
 33.664 45.285 c 33.945 45.547 34.371 45.891 34.945 46.316 c h
37.043 47.867 m f
41.84 43.809 m 42.184 43.48 l 42.496 43.719 42.816 43.895 43.152 44.004
 c 43.488 44.113 43.82 44.16 44.152 44.141 c 44.484 44.121 44.812 44.039
 45.133 43.898 c 45.453 43.754 45.754 43.551 46.035 43.281 c 46.496 42.844
 46.758 42.391 46.82 41.918 c 46.883 41.441 46.734 41.02 46.379 40.645 c
 46.23 40.488 46.07 40.371 45.891 40.289 c 45.715 40.207 45.504 40.164 45.266
 40.164 c 45.023 40.16 44.742 40.195 44.422 40.277 c 44.102 40.355 43.715
 40.477 43.266 40.641 c 42.719 40.84 42.242 40.984 41.832 41.078 c 41.422
 41.172 41.059 41.207 40.742 41.184 c 40.426 41.164 40.145 41.09 39.898 
40.961 c 39.652 40.832 39.414 40.648 39.184 40.402 c 38.91 40.117 38.711
 39.801 38.582 39.461 c 38.457 39.121 38.402 38.77 38.418 38.414 c 38.438
 38.059 38.531 37.711 38.695 37.375 c 38.859 37.035 39.094 36.719 39.398
 36.43 c 39.676 36.168 39.973 35.969 40.293 35.832 c 40.613 35.695 40.988
 35.609 41.414 35.57 c 41.258 34.918 l 41.473 34.715 l 43.344 36.48 l 42.996
 36.809 l 42.359 36.438 41.781 36.266 41.262 36.285 c 40.742 36.301 40.281
 36.5 39.879 36.879 c 39.5 37.242 39.285 37.621 39.238 38.023 c 39.191 38.422
 39.316 38.781 39.621 39.102 c 39.762 39.25 39.914 39.363 40.082 39.438 
c 40.246 39.512 40.438 39.551 40.652 39.555 c 40.867 39.555 41.121 39.527
 41.402 39.465 c 41.688 39.402 42.023 39.305 42.402 39.168 c 43.059 38.934
 43.625 38.762 44.102 38.652 c 44.574 38.539 44.988 38.488 45.336 38.492
 c 45.688 38.5 45.992 38.566 46.254 38.691 c 46.516 38.816 46.762 39.004
 46.992 39.246 c 47.289 39.559 47.5 39.906 47.621 40.285 c 47.746 40.668
 47.785 41.059 47.734 41.457 c 47.688 41.859 47.559 42.258 47.344 42.656
 c 47.129 43.055 46.832 43.434 46.457 43.789 c 46.102 44.125 45.734 44.379
 45.355 44.547 c 44.977 44.715 44.527 44.82 44.012 44.863 c 44.184 45.57
 l 43.969 45.773 l h
41.84 43.809 m f
61.754 30.359 m 61.113 24.352 l 61.078 24.008 61.039 23.746 61 23.562 c
 60.961 23.379 60.906 23.223 60.836 23.094 c 60.727 22.887 60.586 22.777
 60.418 22.762 c 60.246 22.746 59.992 22.828 59.652 23.012 c 59.418 22.578
 l 62.184 21.098 l 62.414 21.531 l 62.254 21.648 62.121 21.758 62.016 21.863
 c 61.91 21.969 61.828 22.078 61.77 22.199 c 61.711 22.316 61.676 22.449
 61.664 22.602 c 61.648 22.75 61.652 22.922 61.668 23.117 c 62.613 32.289
 l 62.215 32.5 l 55.484 26.984 l 55.262 26.809 55.059 26.664 54.875 26.547
 c 54.691 26.434 54.516 26.352 54.344 26.305 c 54.172 26.262 54 26.25 53.828
 26.273 c 53.656 26.297 53.469 26.355 53.262 26.445 c 53.023 26 l 56.734
 24.016 l 56.973 24.461 l 56.758 24.574 56.59 24.676 56.469 24.766 c 56.348
 24.855 56.258 24.941 56.203 25.023 c 56.152 25.105 56.125 25.188 56.129
 25.262 c 56.129 25.34 56.152 25.418 56.191 25.492 c 56.25 25.598 56.332
 25.711 56.445 25.832 c 56.559 25.953 56.742 26.117 56.988 26.324 c h
61.754 30.359 m f
77.305 22.07 m 77.508 22.719 77.621 23.309 77.648 23.844 c 77.676 24.375
 77.602 24.852 77.418 25.266 c 77.238 25.684 76.949 26.047 76.551 26.355
 c 76.152 26.668 75.633 26.922 74.992 27.121 c 74.383 27.312 73.836 27.418
 73.348 27.441 c 72.859 27.465 72.418 27.387 72.027 27.207 c 71.641 27.027
 71.301 26.738 71.016 26.34 c 70.727 25.941 70.48 25.422 70.277 24.773 c
 69.262 21.52 l 69.07 20.914 68.91 20.449 68.777 20.129 c 68.645 19.809 
68.484 19.594 68.297 19.48 c 68.164 19.406 68.008 19.375 67.828 19.391 c
 67.648 19.406 67.422 19.461 67.141 19.547 c 66.996 19.078 l 71.195 17.762
 l 71.34 18.23 l 71.062 18.32 70.84 18.406 70.68 18.492 c 70.516 18.578 
70.406 18.703 70.352 18.867 c 70.281 19.051 70.281 19.309 70.352 19.645 
c 70.418 19.977 70.547 20.449 70.738 21.059 c 71.789 24.406 l 71.918 24.824
 72.078 25.184 72.266 25.48 c 72.453 25.777 72.684 26.008 72.949 26.172 
c 73.219 26.336 73.527 26.426 73.879 26.445 c 74.23 26.461 74.637 26.395
 75.098 26.25 c 75.918 25.992 76.465 25.574 76.73 24.988 c 77 24.406 76.992
 23.668 76.715 22.781 c 75.785 19.812 l 75.559 19.082 75.355 18.539 75.18
 18.18 c 75.004 17.82 74.812 17.586 74.609 17.477 c 74.461 17.406 74.293
 17.383 74.113 17.41 c 73.934 17.434 73.715 17.488 73.461 17.566 c 73.312
 17.098 l 76.883 15.98 l 77.031 16.449 l 76.77 16.531 76.559 16.617 76.402
 16.711 c 76.25 16.805 76.145 16.938 76.09 17.109 c 76.02 17.32 76.02 17.613
 76.094 17.992 c 76.168 18.371 76.312 18.902 76.523 19.582 c h
77.305 22.07 m f
92.102 23.66 m 83.82 24.645 l 83.766 24.16 l 84.062 24.113 84.301 24.059
 84.48 23.996 c 84.656 23.93 84.793 23.84 84.883 23.727 c 84.973 23.613 
85.023 23.457 85.035 23.266 c 85.047 23.074 85.035 22.828 85 22.531 c 84.289
 16.559 l 84.254 16.258 84.207 16.02 84.156 15.84 c 84.105 15.66 84.027 
15.52 83.926 15.426 c 83.824 15.328 83.684 15.27 83.508 15.254 c 83.332 
15.234 83.109 15.234 82.832 15.25 c 82.773 14.762 l 86.672 14.297 l 86.727
 14.785 l 86.457 14.824 86.238 14.879 86.078 14.941 c 85.918 15.004 85.797
 15.094 85.719 15.215 c 85.645 15.34 85.602 15.5 85.598 15.699 c 85.59 15.898
 85.605 16.16 85.645 16.488 c 86.301 22.012 l 86.344 22.367 86.418 22.656
 86.516 22.875 c 86.617 23.094 86.762 23.254 86.949 23.355 c 87.141 23.461
 87.383 23.516 87.68 23.531 c 87.977 23.543 88.348 23.523 88.789 23.469 
c 89.277 23.41 89.684 23.332 90.012 23.238 c 90.336 23.145 90.605 23.012
 90.816 22.844 c 91.023 22.676 91.18 22.457 91.281 22.191 c 91.387 21.922
 91.461 21.582 91.504 21.168 c 91.992 21.109 l h
92.102 23.66 m f
104.82 16.445 m 104.293 16.422 l 104.281 16.055 104.23 15.742 104.148 15.488
 c 104.062 15.234 103.934 15.035 103.762 14.887 c 103.594 14.738 103.375
 14.629 103.109 14.559 c 102.848 14.484 102.531 14.445 102.16 14.43 c 101.84
 14.418 101.586 14.414 101.391 14.418 c 101.199 14.426 101.047 14.441 100.945
 14.473 c 100.84 14.504 100.77 14.543 100.738 14.586 c 100.707 14.633 100.691
 14.695 100.688 14.773 c 100.418 21.672 l 100.41 21.949 100.418 22.184 100.449
 22.383 c 100.48 22.582 100.551 22.746 100.664 22.879 c 100.773 23.008 100.938
 23.105 101.156 23.18 c 101.371 23.254 101.66 23.301 102.023 23.324 c 102.004
 23.812 l 97.129 23.625 l 97.148 23.133 l 97.508 23.141 97.801 23.113 98.027
 23.059 c 98.254 23.004 98.426 22.914 98.547 22.797 c 98.668 22.676 98.754
 22.516 98.801 22.32 c 98.844 22.125 98.875 21.887 98.883 21.613 c 99.152
 14.715 l 99.156 14.637 99.141 14.574 99.113 14.523 c 99.086 14.477 99.027
 14.434 98.938 14.395 c 98.848 14.355 98.723 14.328 98.562 14.309 c 98.398
 14.289 98.18 14.273 97.902 14.266 c 97.566 14.25 97.258 14.254 96.969 14.266
 c 96.68 14.281 96.426 14.348 96.211 14.465 c 95.996 14.582 95.816 14.766
 95.68 15.02 c 95.539 15.27 95.457 15.625 95.43 16.082 c 94.953 16.062 l
 95.051 13.598 l 104.785 13.977 l h
104.82 16.445 m f
126.125 18.969 m 126.469 19.078 l 125.652 21.938 l 125.199 21.789 l 125.258
 21.012 125.094 20.332 124.711 19.754 c 124.332 19.176 123.777 18.77 123.047
 18.531 c 122.551 18.367 122.07 18.32 121.617 18.387 c 121.16 18.453 120.734
 18.629 120.344 18.906 c 119.953 19.188 119.602 19.57 119.285 20.055 c 118.965
 20.539 118.699 21.117 118.477 21.785 c 118.047 23.102 117.988 24.203 118.305
 25.09 c 118.621 25.977 119.297 26.59 120.336 26.934 c 121.914 27.449 123.203
 26.941 124.203 25.414 c 124.707 25.578 l 123.707 28.633 l 123.277 28.492
 l 123.312 27.43 l 122.215 27.879 121.055 27.902 119.84 27.5 c 119.145 27.273
 118.551 26.957 118.062 26.555 c 117.574 26.148 117.199 25.68 116.938 25.145
 c 116.672 24.609 116.527 24.02 116.5 23.367 c 116.473 22.715 116.578 22.031
 116.809 21.32 c 117.055 20.578 117.391 19.938 117.82 19.398 c 118.25 18.859
 118.746 18.438 119.301 18.133 c 119.859 17.824 120.465 17.645 121.121 17.594
 c 121.777 17.539 122.453 17.629 123.148 17.855 c 123.637 18.016 124.078
 18.238 124.465 18.52 c 124.852 18.801 125.25 19.18 125.656 19.656 c h
126.125 18.969 m f
134.508 30 m 131.48 28.352 l 131.184 28.594 130.926 28.809 130.707 28.996
 c 130.484 29.184 130.301 29.352 130.148 29.492 c 129.996 29.637 129.879
 29.762 129.789 29.871 c 129.699 29.98 129.637 30.07 129.594 30.148 c 129.48
 30.359 129.469 30.543 129.562 30.695 c 129.652 30.848 129.859 31.012 130.176
 31.184 c 129.941 31.613 l 127.188 30.113 l 127.422 29.684 l 127.609 29.758
 127.773 29.809 127.918 29.836 c 128.062 29.867 128.203 29.875 128.332 29.859
 c 128.465 29.84 128.598 29.797 128.727 29.727 c 128.859 29.656 129.004 
29.559 129.156 29.438 c 136.121 23.664 l 136.609 23.93 l 135.703 31.723 
l 135.645 32.242 135.613 32.66 135.602 32.984 c 135.594 33.309 135.613 33.566
 135.664 33.762 c 135.715 33.957 135.801 34.109 135.922 34.223 c 136.039
 34.336 136.199 34.449 136.395 34.555 c 136.152 34.996 l 132.457 32.984 
l 132.699 32.543 l 133.098 32.762 133.395 32.875 133.586 32.879 c 133.781
 32.887 133.922 32.805 134.02 32.629 c 134.059 32.555 134.094 32.48 134.121
 32.414 c 134.148 32.344 134.172 32.27 134.195 32.184 c 134.219 32.098 134.238
 31.996 134.254 31.883 c 134.273 31.77 134.289 31.637 134.309 31.477 c h
132.016 27.91 m 134.602 29.316 l 135.164 25.289 l h
132.016 27.91 m f
149.941 36.082 m 149.656 36.438 149.348 36.715 149.008 36.906 c 148.668
 37.098 148.297 37.195 147.895 37.195 c 147.496 37.195 147.055 37.094 146.574
 36.887 c 146.094 36.684 145.57 36.355 145.004 35.906 c 144.094 35.184 l
 142.547 37.137 l 142.348 37.383 142.203 37.602 142.105 37.781 c 142.012
 37.965 141.977 38.141 142.008 38.305 c 142.035 38.469 142.129 38.641 142.289
 38.816 c 142.453 38.996 142.684 39.203 142.988 39.445 c 142.684 39.828 
l 139.113 36.996 l 139.418 36.613 l 139.66 36.793 139.867 36.926 140.039
 37.004 c 140.211 37.086 140.367 37.121 140.512 37.102 c 140.656 37.086 
140.805 37.016 140.949 36.887 c 141.094 36.762 141.258 36.578 141.445 36.344
 c 145.184 31.633 l 145.371 31.395 145.512 31.195 145.602 31.031 c 145.695
 30.867 145.738 30.715 145.734 30.578 c 145.73 30.438 145.672 30.297 145.562
 30.16 c 145.449 30.023 145.293 29.863 145.086 29.676 c 145.391 29.293 l
 148.566 31.812 l 149.496 32.551 150.082 33.293 150.316 34.039 c 150.551
 34.789 150.426 35.469 149.941 36.082 c h
144.496 34.68 m 145.215 35.246 l 145.887 35.781 146.492 36.051 147.023 
36.051 c 147.559 36.051 148.059 35.754 148.531 35.16 c 148.984 34.586 149.18
 34.074 149.117 33.621 c 149.051 33.172 148.742 32.727 148.191 32.285 c 
147.262 31.551 l 147.145 31.457 147.043 31.469 146.953 31.586 c h
144.496 34.68 m f
152.105 45.18 m 151.793 45.477 151.559 45.723 151.402 45.918 c 151.246 
46.117 151.152 46.297 151.117 46.465 c 151.086 46.629 151.121 46.797 151.215
 46.961 c 151.312 47.121 151.461 47.316 151.66 47.543 c 151.305 47.879 l
 148.426 44.848 l 148.781 44.508 l 148.996 44.723 149.184 44.879 149.344
 44.98 c 149.508 45.082 149.672 45.125 149.836 45.109 c 150 45.098 150.18
 45.02 150.375 44.883 c 150.57 44.746 150.812 44.539 151.109 44.258 c 154.906
 40.652 l 155.172 40.402 155.375 40.184 155.527 40 c 155.68 39.816 155.773
 39.645 155.809 39.484 c 155.848 39.324 155.828 39.16 155.75 38.996 c 155.672
 38.836 155.543 38.648 155.367 38.434 c 155.723 38.098 l 158.426 40.941 
l 158.07 41.281 l 157.871 41.086 157.695 40.949 157.535 40.871 c 157.379
 40.789 157.215 40.766 157.051 40.797 c 156.883 40.828 156.699 40.922 156.5
 41.07 c 156.297 41.223 156.055 41.43 155.777 41.695 c h
152.105 45.18 m f
165.754 54.871 m 165.449 54.438 l 165.738 54.203 165.961 53.98 166.109 
53.758 c 166.262 53.539 166.344 53.316 166.363 53.09 c 166.379 52.863 166.336
 52.625 166.23 52.371 c 166.129 52.117 165.973 51.84 165.762 51.535 c 165.578
 51.273 165.43 51.066 165.309 50.914 c 165.188 50.762 165.082 50.656 164.996
 50.59 c 164.906 50.523 164.836 50.492 164.781 50.496 c 164.723 50.496 164.664
 50.52 164.602 50.566 c 158.93 54.504 l 158.703 54.66 158.52 54.812 158.379
 54.957 c 158.238 55.102 158.148 55.258 158.113 55.422 c 158.078 55.59 158.094
 55.781 158.168 56 c 158.238 56.215 158.375 56.477 158.574 56.777 c 158.172
 57.059 l 155.387 53.051 l 155.793 52.77 l 156.004 53.062 156.203 53.281
 156.383 53.43 c 156.562 53.574 156.738 53.66 156.906 53.684 c 157.074 53.711
 157.25 53.68 157.438 53.602 c 157.621 53.52 157.828 53.398 158.051 53.242
 c 163.723 49.305 l 163.789 49.258 163.832 49.211 163.852 49.16 c 163.875
 49.109 163.871 49.035 163.848 48.941 c 163.828 48.848 163.773 48.73 163.691
 48.59 c 163.609 48.445 163.488 48.262 163.332 48.035 c 163.141 47.762 162.949
 47.512 162.766 47.289 c 162.578 47.066 162.375 46.906 162.152 46.805 c 
161.93 46.703 161.676 46.672 161.391 46.715 c 161.105 46.754 160.773 46.902
 160.395 47.156 c 160.121 46.762 l 162.145 45.355 l 167.703 53.359 l h
165.754 54.871 m f
166.762 65.441 m 165.301 62.32 l 164.922 62.336 164.586 62.355 164.297 
62.375 c 164.008 62.398 163.758 62.422 163.551 62.445 c 163.344 62.473 163.176
 62.5 163.039 62.535 c 162.902 62.57 162.797 62.605 162.719 62.645 c 162.5
 62.746 162.383 62.887 162.367 63.062 c 162.352 63.242 162.418 63.496 162.57
 63.824 c 162.129 64.031 l 160.801 61.188 l 161.246 60.98 l 161.352 61.148
 161.453 61.289 161.555 61.398 c 161.652 61.508 161.762 61.598 161.875 61.66
 c 161.992 61.727 162.121 61.77 162.27 61.789 c 162.418 61.812 162.59 61.82
 162.785 61.812 c 171.82 61.297 l 172.055 61.801 l 166.699 67.535 l 166.348
 67.918 166.07 68.238 165.871 68.492 c 165.672 68.746 165.535 68.969 165.461
 69.152 c 165.387 69.34 165.363 69.516 165.391 69.68 c 165.418 69.84 165.48
 70.023 165.574 70.227 c 165.121 70.438 l 163.34 66.625 l 163.797 66.414
 l 163.988 66.828 164.16 67.094 164.312 67.211 c 164.461 67.332 164.625 
67.352 164.805 67.266 c 164.883 67.23 164.953 67.191 165.016 67.152 c 165.078
 67.113 165.145 67.066 165.215 67.012 c 165.281 66.957 165.359 66.887 165.438
 66.805 c 165.52 66.727 165.613 66.629 165.723 66.512 c h
165.996 62.281 m 167.242 64.945 l 170.086 62.039 l h
165.996 62.281 m f
168.453 81.84 m 166.309 73.785 l 166.781 73.66 l 166.867 73.945 166.957
 74.176 167.043 74.344 c 167.133 74.512 167.242 74.633 167.367 74.703 c 
167.492 74.777 167.652 74.805 167.844 74.793 c 168.035 74.777 168.277 74.73
 168.57 74.652 c 174.383 73.105 l 174.672 73.027 174.902 72.949 175.074 
72.871 c 175.246 72.797 175.371 72.699 175.453 72.586 c 175.531 72.469 175.57
 72.324 175.562 72.148 c 175.555 71.973 175.523 71.75 175.473 71.477 c 175.945
 71.352 l 176.953 75.145 l 176.48 75.27 l 176.402 75.004 176.32 74.797 176.234
 74.648 c 176.148 74.496 176.043 74.391 175.91 74.332 c 175.777 74.273 175.613
 74.254 175.414 74.277 c 175.215 74.301 174.957 74.352 174.641 74.438 c 
169.266 75.867 l 168.918 75.961 168.641 76.074 168.441 76.203 c 168.238 
76.332 168.102 76.496 168.027 76.699 c 167.949 76.902 167.93 77.152 167.957
 77.445 c 167.988 77.742 168.059 78.105 168.176 78.535 c 168.301 79.012 
168.434 79.402 168.574 79.711 c 168.715 80.023 168.883 80.27 169.078 80.453
 c 169.273 80.637 169.512 80.762 169.793 80.824 c 170.07 80.887 170.418 
80.914 170.836 80.898 c 170.961 81.375 l h
168.453 81.84 m f
96.75 0 m 83.637 0 71.082 2.535 59.086 7.609 c 47.508 12.508 37.258 19.418
 28.336 28.336 c 19.418 37.258 12.508 47.508 7.609 59.086 c 2.535 71.082
 0 83.637 0 96.75 c 0 109.863 2.535 122.418 7.609 134.414 c 12.508 145.992
 19.418 156.242 28.336 165.16 c 37.258 174.082 47.508 180.992 59.086 185.891
 c 71.082 190.965 83.637 193.5 96.75 193.5 c 109.863 193.5 122.418 190.965
 134.414 185.891 c 145.992 180.992 156.242 174.082 165.16 165.16 c 174.082
 156.242 180.992 145.992 185.891 134.414 c 190.965 122.418 193.5 109.863
 193.5 96.75 c 193.5 83.637 190.965 71.082 185.887 59.086 c 180.992 47.508
 174.082 37.258 165.164 28.336 c 156.242 19.418 145.992 12.508 134.414 7.609
 c 122.418 2.535 109.863 0 96.75 0 c h
53.098 53.098 m 41.273 64.926 35.25 79.152 35.023 95.781 c 1.941 95.781
 l 2.062 83.281 4.547 71.297 9.395 59.84 c 14.191 48.492 20.961 38.449 29.707
 29.707 c 38.449 20.961 48.492 14.191 59.84 9.395 c 71.594 4.422 83.898 
1.934 96.75 1.934 c 109.602 1.934 121.906 4.422 133.66 9.395 c 145.008 14.191
 155.051 20.961 163.793 29.707 c 172.539 38.449 179.309 48.492 184.105 59.84
 c 188.953 71.297 191.438 83.277 191.559 95.781 c 158.473 95.781 l 158.25
 79.152 152.227 64.926 140.402 53.098 c 128.348 41.047 113.797 35.02 96.75
 35.02 c 79.703 35.02 65.152 41.047 53.098 53.098 c h
96.75 36.953 m 113.262 36.953 127.355 42.793 139.031 54.469 c 150.707 66.145
 156.547 80.238 156.547 96.75 c 156.547 113.262 150.707 127.355 139.031 
139.031 c 127.355 150.707 113.262 156.547 96.75 156.547 c 80.238 156.547
 66.145 150.707 54.469 139.031 c 42.793 127.355 36.953 113.262 36.953 96.75
 c 36.953 80.238 42.793 66.145 54.469 54.469 c 66.145 42.793 80.238 36.953
 96.75 36.953 c h
15.758 113.984 m 15.285 114.117 l 16.633 118.98 l 16.832 119.699 17.133
 120.332 17.527 120.875 c 17.922 121.414 18.383 121.848 18.91 122.172 c 
19.438 122.492 20.02 122.695 20.652 122.777 c 21.289 122.863 21.945 122.809
 22.625 122.621 c 23.34 122.422 23.961 122.109 24.496 121.688 c 25.031 121.262
 25.453 120.758 25.766 120.176 c 26.078 119.594 26.27 118.949 26.34 118.246
 c 26.414 117.543 26.348 116.82 26.141 116.074 c 24.93 111.707 l 24.457 
111.84 l 24.512 112.109 24.547 112.332 24.555 112.508 c 24.562 112.684 24.527
 112.828 24.449 112.945 c 24.371 113.062 24.246 113.16 24.074 113.238 c 
23.902 113.316 23.676 113.395 23.383 113.477 c 17.59 115.086 l 17.289 115.168
 17.047 115.215 16.859 115.227 c 16.668 115.238 16.508 115.207 16.375 115.125
 c 16.242 115.047 16.129 114.914 16.035 114.73 c 15.945 114.547 15.852 114.297
 15.758 113.984 c h
178.184 114.25 m 176.035 122.305 l 175.562 122.18 l 175.633 121.887 175.668
 121.645 175.676 121.457 c 175.68 121.266 175.648 121.105 175.574 120.98
 c 175.5 120.855 175.379 120.75 175.203 120.668 c 175.031 120.586 174.797
 120.508 174.504 120.43 c 168.695 118.883 l 168.402 118.805 168.164 118.754
 167.977 118.738 c 167.789 118.719 167.633 118.738 167.508 118.801 c 167.379
 118.859 167.273 118.965 167.195 119.125 c 167.113 119.281 167.027 119.488
 166.941 119.75 c 166.465 119.625 l 167.477 115.832 l 167.949 115.957 l 
167.887 116.227 167.855 116.449 167.855 116.621 c 167.852 116.793 167.895
 116.938 167.977 117.055 c 168.062 117.172 168.199 117.27 168.379 117.348
 c 168.562 117.43 168.812 117.512 169.129 117.594 c 174.504 119.027 l 174.855
 119.121 175.148 119.16 175.387 119.148 c 175.629 119.137 175.828 119.062
 175.996 118.922 c 176.16 118.785 176.305 118.578 176.426 118.309 c 176.547
 118.039 176.664 117.688 176.781 117.254 c 176.906 116.781 176.984 116.375
 177.02 116.035 c 177.051 115.695 177.027 115.398 176.949 115.145 c 176.871
 114.887 176.727 114.66 176.516 114.465 c 176.305 114.273 176.016 114.078
 175.648 113.883 c 175.773 113.406 l h
24.816 114.484 m 24.957 114.445 25.047 114.496 25.086 114.637 c 25.523 
116.219 l 25.68 116.773 25.715 117.297 25.641 117.793 c 25.562 118.285 25.379
 118.742 25.094 119.156 c 24.809 119.57 24.418 119.934 23.926 120.25 c 23.43
 120.566 22.84 120.82 22.152 121.012 c 20.844 121.375 19.766 121.348 18.922
 120.93 c 18.078 120.512 17.5 119.734 17.184 118.598 c 16.84 117.363 17.141
 116.613 18.086 116.352 c h
26.914 130.727 m 26.723 130.469 26.527 130.133 26.324 129.715 c 29.652 
128.09 l 29.785 128.023 29.883 128.059 29.945 128.188 c 30.664 129.66 l 
30.859 130.055 31 130.402 31.09 130.703 c 31.18 131.004 31.211 131.273 31.184
 131.512 c 31.156 131.75 31.07 131.969 30.922 132.172 c 30.777 132.371 30.559
 132.57 30.273 132.77 c 30.473 133.176 l 32.461 132.074 l 29.188 125.371
 l 28.746 125.586 l 28.852 125.84 28.922 126.055 28.965 126.227 c 29.004
 126.398 28.996 126.547 28.941 126.676 c 28.883 126.805 28.777 126.922 28.625
 127.031 c 28.473 127.141 28.262 127.262 27.988 127.391 c 22.586 130.031
 l 22.316 130.164 22.09 130.258 21.902 130.309 c 21.719 130.363 21.555 130.363
 21.418 130.316 c 21.281 130.27 21.152 130.172 21.031 130.023 c 20.91 129.879
 20.781 129.672 20.641 129.402 c 20.199 129.617 l 23.719 136.82 l 26.09 
135.879 l 25.875 135.438 l 25.496 135.527 25.164 135.566 24.879 135.562 
c 24.598 135.559 24.336 135.492 24.102 135.371 c 23.871 135.242 23.652 135.051
 23.457 134.793 c 23.258 134.535 23.059 134.203 22.859 133.793 c 22.68 133.43
 22.555 133.113 22.477 132.848 c 22.395 132.578 22.371 132.344 22.402 132.141
 c 22.434 131.941 22.516 131.766 22.652 131.625 c 22.789 131.48 22.984 131.348
 23.238 131.223 c 25.859 129.941 l 26.07 130.375 26.219 130.746 26.297 131.059
 c 26.379 131.367 26.402 131.633 26.371 131.855 c 26.34 132.074 26.258 132.258
 26.117 132.41 c 25.98 132.559 25.797 132.688 25.562 132.801 c 25.762 133.207
 l 28.926 131.66 l 28.73 131.254 l 28.496 131.367 28.277 131.43 28.07 131.438
 c 27.867 131.449 27.668 131.398 27.48 131.285 c 27.289 131.172 27.102 130.984
 26.914 130.727 c h
167.898 132.395 m 169.355 129.27 l 170.844 129.379 l 171 129.387 171.137
 129.398 171.25 129.406 c 171.363 129.418 171.465 129.43 171.551 129.449
 c 171.641 129.465 171.719 129.484 171.789 129.508 c 171.859 129.531 171.934
 129.562 172.012 129.598 c 172.188 129.68 172.281 129.82 172.285 130.012
 c 172.293 130.203 172.199 130.508 172.004 130.922 c 172.461 131.133 l 174.242
 127.32 l 173.785 127.109 l 173.691 127.309 173.59 127.473 173.484 127.602
 c 173.379 127.727 173.23 127.82 173.039 127.883 c 172.848 127.945 172.59
 127.984 172.27 127.996 c 171.945 128.004 171.523 127.996 171.004 127.973
 c 163.168 127.547 l 162.934 128.051 l 169.125 134.648 l 169.258 134.793
 169.359 134.93 169.438 135.059 c 169.52 135.184 169.57 135.312 169.594 
135.441 c 169.617 135.574 169.621 135.711 169.598 135.859 c 169.578 136.004
 169.539 136.172 169.477 136.363 c 169.922 136.57 l 171.25 133.73 l 170.805
 133.523 l 170.652 133.848 170.5 134.062 170.355 134.168 c 170.207 134.27
 170.023 134.27 169.805 134.168 c 169.727 134.129 169.633 134.07 169.52 
133.988 c 169.402 133.906 169.27 133.797 169.117 133.652 c 168.969 133.512
 168.789 133.336 168.59 133.129 c 168.387 132.918 168.156 132.676 167.898
 132.395 c h
168.668 129.219 m 167.422 131.887 l 164.613 128.906 l h
161.746 135.844 m 161.445 136.281 l 161.125 136.09 160.836 135.961 160.578
 135.898 c 160.32 135.832 160.078 135.832 159.863 135.898 c 159.645 135.961
 159.438 136.086 159.234 136.27 c 159.031 136.453 158.828 136.699 158.617
 137.004 c 158.434 137.266 158.293 137.477 158.195 137.645 c 158.094 137.809
 158.027 137.945 158 138.051 c 157.969 138.156 157.965 138.234 157.984 138.285
 c 158.008 138.336 158.051 138.383 158.113 138.43 c 163.785 142.367 l 164.012
 142.523 164.215 142.645 164.398 142.727 c 164.586 142.805 164.762 142.836
 164.93 142.809 c 165.098 142.785 165.273 142.703 165.449 142.559 c 165.629
 142.414 165.824 142.199 166.039 141.906 c 166.441 142.188 l 163.656 146.191
 l 163.254 145.914 l 163.453 145.609 163.59 145.348 163.664 145.129 c 163.738
 144.91 163.758 144.715 163.723 144.547 c 163.688 144.383 163.598 144.227
 163.457 144.082 c 163.316 143.938 163.133 143.785 162.906 143.629 c 157.234
 139.691 l 157.172 139.645 157.113 139.621 157.055 139.621 c 157 139.617
 156.934 139.645 156.852 139.699 c 156.773 139.754 156.68 139.844 156.578
 139.973 c 156.473 140.098 156.344 140.273 156.188 140.5 c 155.996 140.777
 155.828 141.039 155.684 141.293 c 155.543 141.543 155.461 141.789 155.441
 142.035 c 155.426 142.277 155.484 142.527 155.625 142.781 c 155.762 143.035
 156.016 143.293 156.387 143.562 c 156.113 143.953 l 154.09 142.547 l 159.648
 134.543 l h
35.383 146.859 m 34.836 147.266 34.316 147.57 33.82 147.77 c 33.328 147.969
 32.855 148.051 32.398 148.02 c 31.945 147.984 31.508 147.832 31.086 147.555
 c 30.66 147.281 30.25 146.871 29.852 146.332 c 29.473 145.82 29.191 145.34
 29.012 144.883 c 28.828 144.43 28.758 143.988 28.801 143.562 c 28.844 143.133
 29.004 142.719 29.285 142.32 c 29.566 141.918 29.98 141.516 30.527 141.109
 c 33.266 139.082 l 33.777 138.703 34.16 138.398 34.422 138.168 c 34.68 
137.941 34.832 137.719 34.875 137.504 c 34.902 137.355 34.879 137.195 34.805
 137.031 c 34.734 136.867 34.609 136.668 34.434 136.434 c 34.828 136.141
 l 37.449 139.676 l 37.055 139.969 l 36.879 139.734 36.727 139.555 36.59
 139.43 c 36.457 139.305 36.301 139.242 36.129 139.242 c 35.934 139.234 
35.688 139.32 35.395 139.496 c 35.102 139.672 34.699 139.945 34.188 140.324
 c 31.367 142.414 l 31.012 142.676 30.727 142.945 30.508 143.219 c 30.289
 143.496 30.145 143.785 30.078 144.094 c 30.012 144.398 30.027 144.723 30.129
 145.059 c 30.23 145.398 30.422 145.758 30.707 146.148 c 31.223 146.84 31.797
 147.215 32.438 147.277 c 33.078 147.336 33.77 147.094 34.516 146.539 c 
37.016 144.688 l 37.633 144.23 38.082 143.863 38.363 143.578 c 38.645 143.293
 38.805 143.039 38.836 142.809 c 38.855 142.645 38.824 142.48 38.738 142.32
 c 38.656 142.156 38.535 141.965 38.375 141.754 c 38.77 141.461 l 40.996
 144.469 l 40.605 144.762 l 40.441 144.539 40.289 144.371 40.148 144.254
 c 40.008 144.137 39.852 144.082 39.672 144.086 c 39.449 144.09 39.172 144.188
 38.836 144.383 c 38.504 144.574 38.051 144.883 37.477 145.309 c h
156.645 152.559 m 156.438 152.41 156.18 152.188 155.871 151.891 c 152.199
 148.41 l 151.918 148.145 151.699 147.914 151.539 147.719 c 151.379 147.527
 151.277 147.348 151.238 147.184 c 151.195 147.02 151.211 146.855 151.285
 146.695 c 151.355 146.531 151.484 146.348 151.664 146.141 c 151.309 145.805
 l 148.609 148.648 l 148.965 148.984 l 149.168 148.797 149.348 148.66 149.508
 148.574 c 149.664 148.488 149.828 148.461 149.988 148.488 c 150.148 148.52
 150.328 148.605 150.52 148.746 c 150.711 148.887 150.938 149.082 151.199
 149.328 c 155 152.938 l 155.293 153.215 155.516 153.449 155.664 153.637
 c 155.812 153.824 155.895 154 155.918 154.164 c 155.941 154.328 155.906
 154.492 155.812 154.66 c 155.719 154.828 155.574 155.023 155.371 155.246
 c 155.727 155.586 l 158.605 152.551 l 158.25 152.215 l 158.039 152.426 
157.852 152.586 157.691 152.691 c 157.535 152.793 157.371 152.836 157.203
 152.812 c 157.035 152.789 156.848 152.703 156.645 152.559 c h
39.434 152.926 m 39.086 152.598 l 37.238 154.828 l 37.453 155.031 l 38.152
 154.82 l 38.223 155.336 38.352 155.781 38.539 156.148 c 38.73 156.52 39.004
 156.871 39.359 157.207 c 39.734 157.562 40.125 157.836 40.535 158.031 c
 40.945 158.223 41.352 158.332 41.754 158.359 c 42.156 158.383 42.543 158.324
 42.918 158.18 c 43.293 158.035 43.625 157.809 43.922 157.496 c 44.152 157.254
 44.324 156.996 44.434 156.73 c 44.547 156.461 44.598 156.152 44.582 155.805
 c 44.57 155.453 44.496 155.043 44.359 154.578 c 44.223 154.109 44.02 153.551
 43.75 152.906 c 43.594 152.535 43.48 152.207 43.402 151.926 c 43.324 151.645
 43.281 151.398 43.27 151.184 c 43.262 150.965 43.289 150.773 43.355 150.605
 c 43.422 150.434 43.523 150.277 43.668 150.125 c 43.969 149.809 44.32 149.66
 44.723 149.688 c 45.125 149.711 45.52 149.906 45.898 150.266 c 46.297 150.645
 46.523 151.094 46.57 151.613 c 46.617 152.133 46.473 152.719 46.137 153.371
 c 46.484 153.703 l 48.148 151.738 l 47.934 151.535 l 47.289 151.727 l 47.23
 151.301 47.121 150.934 46.969 150.621 c 46.812 150.309 46.598 150.023 46.324
 149.762 c 46.016 149.473 45.691 149.254 45.344 149.109 c 44.996 148.961
 44.645 148.891 44.285 148.891 c 43.93 148.891 43.586 148.965 43.25 149.109
 c 42.918 149.258 42.613 149.473 42.344 149.758 c 42.113 150.004 41.938 
150.25 41.824 150.504 c 41.711 150.758 41.648 151.043 41.645 151.359 c 41.645
 151.676 41.699 152.035 41.812 152.441 c 41.926 152.844 42.098 153.316 42.324
 153.852 c 42.516 154.289 42.656 154.668 42.754 154.984 c 42.852 155.301
 42.902 155.578 42.914 155.82 c 42.922 156.059 42.891 156.27 42.82 156.453
 c 42.75 156.633 42.641 156.805 42.492 156.961 c 42.137 157.336 41.723 157.504
 41.246 157.469 c 40.77 157.434 40.301 157.195 39.84 156.758 c 39.559 156.492
 39.336 156.203 39.176 155.891 c 39.016 155.578 38.918 155.254 38.879 154.926
 c 38.844 154.594 38.871 154.258 38.965 153.918 c 39.055 153.578 39.211 
153.246 39.434 152.926 c h
146.941 153.637 m 147.223 153.992 147.422 154.359 147.531 154.734 c 147.641
 155.109 147.648 155.488 147.559 155.879 c 147.469 156.27 147.27 156.676
 146.961 157.098 c 146.652 157.52 146.215 157.953 145.648 158.402 c 144.738
 159.125 l 146.285 161.074 l 146.484 161.324 146.66 161.516 146.816 161.652
 c 146.973 161.785 147.133 161.859 147.301 161.867 c 147.469 161.879 147.656
 161.824 147.867 161.707 c 148.074 161.59 148.332 161.414 148.637 161.172
 c 148.941 161.555 l 145.371 164.387 l 145.066 164.004 l 145.297 163.809
 145.473 163.641 145.59 163.492 c 145.707 163.34 145.773 163.195 145.793
 163.051 c 145.809 162.906 145.773 162.746 145.68 162.578 c 145.59 162.406
 145.453 162.207 145.266 161.969 c 141.527 157.258 l 141.34 157.023 141.176
 156.84 141.035 156.715 c 140.898 156.59 140.762 156.512 140.621 156.484
 c 140.484 156.457 140.336 156.48 140.18 156.555 c 140.02 156.633 139.828
 156.75 139.602 156.906 c 139.297 156.523 l 142.469 154.004 l 143.398 153.266
 144.254 152.867 145.035 152.809 c 145.82 152.746 146.453 153.023 146.941
 153.637 c h
144.336 158.617 m 145.055 158.051 l 145.727 157.516 146.125 156.988 146.246
 156.469 c 146.367 155.949 146.191 155.395 145.723 154.801 c 145.266 154.227
 144.812 153.922 144.359 153.883 c 143.902 153.84 143.398 154.039 142.848
 154.48 c 141.918 155.219 l 141.801 155.309 141.789 155.41 141.883 155.527
 c h
58.867 168.531 m 63.516 164.664 l 63.777 164.445 63.977 164.27 64.105 164.133
 c 64.238 164 64.336 163.867 64.406 163.738 c 64.516 163.535 64.531 163.355
 64.449 163.207 c 64.371 163.055 64.16 162.887 63.816 162.707 c 64.051 162.273
 l 66.812 163.754 l 66.582 164.188 l 66.395 164.113 66.23 164.066 66.086
 164.035 c 65.938 164.008 65.801 164 65.668 164.02 c 65.539 164.035 65.406
 164.082 65.277 164.152 c 65.145 164.223 65.004 164.32 64.848 164.445 c 
57.738 170.312 l 57.34 170.102 l 58.199 161.441 l 58.223 161.16 58.23 160.91
 58.227 160.695 c 58.223 160.477 58.191 160.285 58.133 160.117 c 58.074 
159.949 57.988 159.801 57.875 159.668 c 57.758 159.539 57.605 159.414 57.418
 159.293 c 57.652 158.852 l 61.363 160.836 l 61.125 161.281 l 60.914 161.164
 60.734 161.082 60.594 161.031 c 60.449 160.98 60.328 160.953 60.23 160.953
 c 60.133 160.953 60.051 160.977 59.988 161.023 c 59.926 161.066 59.875 
161.125 59.836 161.203 c 59.777 161.309 59.73 161.441 59.695 161.605 c 59.656
 161.766 59.621 162.004 59.582 162.328 c h
132.852 167.664 m 135.879 166.016 l 137.012 166.984 l 137.133 167.086 137.238
 167.172 137.324 167.25 c 137.406 167.324 137.48 167.395 137.539 167.461
 c 137.602 167.527 137.652 167.59 137.695 167.648 c 137.738 167.711 137.777
 167.777 137.82 167.852 c 137.914 168.027 137.906 168.191 137.797 168.352
 c 137.688 168.508 137.43 168.695 137.031 168.914 c 137.273 169.355 l 140.969
 167.344 l 140.727 166.902 l 140.531 167.008 140.352 167.082 140.191 167.121
 c 140.031 167.16 139.855 167.148 139.664 167.082 c 139.473 167.02 139.246
 166.898 138.98 166.715 c 138.711 166.531 138.375 166.277 137.973 165.949
 c 131.918 160.953 l 131.43 161.223 l 132.504 170.203 l 132.52 170.398 132.523
 170.574 132.512 170.723 c 132.5 170.871 132.465 171.004 132.406 171.125
 c 132.352 171.242 132.27 171.355 132.164 171.461 c 132.062 171.566 131.93
 171.68 131.766 171.797 c 132 172.227 l 134.754 170.727 l 134.52 170.297
 l 134.203 170.469 133.957 170.551 133.777 170.547 c 133.598 170.543 133.449
 170.434 133.336 170.223 c 133.293 170.145 133.25 170.043 133.207 169.91
 c 133.164 169.777 133.125 169.605 133.086 169.402 c 133.047 169.195 133.012
 168.953 132.973 168.664 c 132.934 168.375 132.895 168.043 132.852 167.664
 c h
135.355 165.566 m 132.77 166.973 l 132.277 162.906 l h
75.961 175.051 m 76.242 174.598 76.484 174.047 76.688 173.398 c 77.465 
170.914 l 77.68 170.23 77.863 169.715 78.02 169.359 c 78.176 169.008 78.344
 168.766 78.52 168.633 c 78.66 168.523 78.824 168.473 79.004 168.484 c 79.184
 168.496 79.406 168.543 79.672 168.625 c 79.816 168.16 l 76.246 167.039 
l 76.098 167.508 l 76.352 167.586 76.562 167.668 76.727 167.75 c 76.891 
167.836 77.012 167.945 77.094 168.09 c 77.199 168.293 77.223 168.594 77.164
 168.992 c 77.102 169.387 76.957 169.949 76.727 170.68 c 75.797 173.648 
l 75.52 174.535 75.105 175.141 74.551 175.469 c 73.996 175.797 73.312 175.832
 72.488 175.574 c 72.031 175.43 71.66 175.25 71.379 175.039 c 71.098 174.824
 70.895 174.574 70.77 174.285 c 70.645 173.996 70.59 173.68 70.605 173.328
 c 70.617 172.977 70.691 172.59 70.824 172.172 c 71.871 168.82 l 72.062 
168.215 72.227 167.754 72.359 167.438 c 72.496 167.125 72.641 166.91 72.805
 166.801 c 72.941 166.699 73.105 166.66 73.289 166.68 c 73.469 166.703 73.699
 166.758 73.98 166.844 c 74.125 166.375 l 69.926 165.059 l 69.781 165.527
 l 70.059 165.617 70.277 165.703 70.434 165.793 c 70.59 165.883 70.703 165.996
 70.766 166.137 c 70.855 166.336 70.867 166.602 70.793 166.941 c 70.719 
167.277 70.586 167.75 70.395 168.359 c 69.375 171.609 l 69.172 172.258 69.074
 172.828 69.086 173.316 c 69.094 173.809 69.207 174.238 69.426 174.605 c
 69.641 174.977 69.957 175.293 70.371 175.555 c 70.785 175.812 71.297 176.039
 71.906 176.23 c 72.547 176.43 73.117 176.516 73.621 176.492 c 74.129 176.465
 74.574 176.332 74.957 176.09 c 75.344 175.852 75.68 175.504 75.961 175.051
 c h
123.07 165.211 m 123.414 165.098 l 124.449 167.883 l 123.996 168.031 l 
123.578 167.371 123.047 166.922 122.398 166.68 c 121.75 166.441 121.059 
166.441 120.332 166.68 c 119.832 166.84 119.422 167.086 119.094 167.41 c
 118.766 167.734 118.527 168.125 118.375 168.582 c 118.227 169.039 118.168
 169.555 118.199 170.133 c 118.23 170.711 118.355 171.336 118.574 172.008
 c 119.008 173.324 119.609 174.246 120.391 174.773 c 121.172 175.301 122.078
 175.395 123.117 175.055 c 124.695 174.539 125.434 173.367 125.336 171.543
 c 125.84 171.379 l 126.84 174.434 l 126.41 174.574 l 125.809 173.699 l 
125.191 174.707 124.27 175.41 123.051 175.809 c 122.355 176.039 121.695 
176.133 121.062 176.098 c 120.43 176.059 119.848 175.902 119.32 175.629 
c 118.789 175.352 118.32 174.961 117.914 174.449 c 117.508 173.941 117.188
 173.332 116.953 172.621 c 116.711 171.875 116.602 171.16 116.633 170.469
 c 116.66 169.781 116.809 169.148 117.074 168.574 c 117.344 167.996 117.727
 167.492 118.223 167.062 c 118.723 166.633 119.316 166.305 120.012 166.074
 c 120.504 165.914 120.988 165.832 121.469 165.832 c 121.945 165.828 122.492
 165.898 123.098 166.043 c h
90.91 179.836 m 82.633 178.852 l 82.688 178.363 l 82.988 178.391 83.234
 178.395 83.422 178.375 c 83.609 178.352 83.762 178.297 83.879 178.207 c
 83.992 178.117 84.078 177.98 84.133 177.797 c 84.191 177.609 84.238 177.371
 84.273 177.07 c 84.984 171.098 l 85.02 170.801 85.035 170.555 85.027 170.367
 c 85.02 170.18 84.977 170.031 84.898 169.91 c 84.82 169.793 84.699 169.707
 84.535 169.648 c 84.367 169.59 84.148 169.535 83.879 169.484 c 83.934 168.996
 l 87.832 169.461 l 87.773 169.949 l 87.5 169.926 87.277 169.926 87.105 
169.949 c 86.934 169.969 86.793 170.031 86.691 170.133 c 86.59 170.23 86.512
 170.379 86.457 170.57 c 86.402 170.766 86.359 171.023 86.32 171.348 c 85.66
 176.871 l 85.617 177.23 85.621 177.527 85.664 177.762 c 85.711 178 85.812
 178.188 85.977 178.332 c 86.137 178.477 86.359 178.59 86.645 178.672 c 
86.926 178.754 87.293 178.82 87.738 178.875 c 88.223 178.934 88.637 178.953
 88.977 178.938 c 89.316 178.922 89.609 178.855 89.852 178.742 c 90.094 
178.629 90.297 178.453 90.461 178.219 c 90.621 177.98 90.773 177.668 90.918
 177.277 c 91.402 177.336 l h
104.102 172.199 m 104.633 172.18 l 104.406 169.723 l 94.668 170.098 l 94.766
 172.562 l 95.242 172.543 l 95.234 172.09 95.289 171.73 95.406 171.465 c
 95.527 171.203 95.688 171.004 95.895 170.871 c 96.102 170.738 96.348 170.656
 96.633 170.617 c 96.922 170.582 97.23 170.555 97.566 170.543 c 97.844 170.531
 98.062 170.531 98.227 170.535 c 98.391 170.543 98.516 170.562 98.609 170.594
 c 98.699 170.621 98.762 170.66 98.793 170.707 c 98.824 170.754 98.844 170.816
 98.848 170.895 c 99.113 177.793 l 99.125 178.066 99.113 178.305 99.082 
178.504 c 99.051 178.703 98.98 178.867 98.871 178.996 c 98.758 179.125 98.594
 179.227 98.371 179.301 c 98.148 179.375 97.859 179.422 97.5 179.445 c 97.516
 179.934 l 102.391 179.746 l 102.375 179.254 l 102.012 179.262 101.719 179.234
 101.5 179.18 c 101.277 179.125 101.105 179.035 100.984 178.914 c 100.863
 178.793 100.781 178.637 100.734 178.441 c 100.688 178.246 100.66 178.008
 100.648 177.734 c 100.383 170.832 l 100.379 170.758 100.391 170.691 100.418
 170.645 c 100.445 170.598 100.512 170.555 100.613 170.516 c 100.715 170.477
 100.863 170.445 101.055 170.426 c 101.25 170.406 101.504 170.391 101.824
 170.379 c 102.191 170.363 102.512 170.379 102.781 170.43 c 103.051 170.48
 103.273 170.574 103.457 170.707 c 103.637 170.844 103.781 171.035 103.887
 171.277 c 103.988 171.523 104.062 171.832 104.102 172.199 c h
104.102 172.199 m f*
Q Q
showpage
%%Trailer
end
%%EOF
