%!PS-Adobe-3.0 EPSF-3.0
%%Creator: cairo 1.16.0 (https://cairographics.org)
%%CreationDate: Mon Sep 18 19:17:29 2023
%%Pages: 1
%%DocumentData: Clean7Bit
%%LanguageLevel: 2
%%BoundingBox: 0 0 315 17
%%EndComments
%%BeginProlog
50 dict begin
/q { gsave } bind def
/Q { grestore } bind def
/cm { 6 array astore concat } bind def
/w { setlinewidth } bind def
/J { setlinecap } bind def
/j { setlinejoin } bind def
/M { setmiterlimit } bind def
/d { setdash } bind def
/m { moveto } bind def
/l { lineto } bind def
/c { curveto } bind def
/h { closepath } bind def
/re { exch dup neg 3 1 roll 5 3 roll moveto 0 rlineto
      0 exch rlineto 0 rlineto closepath } bind def
/S { stroke } bind def
/f { fill } bind def
/f* { eofill } bind def
/n { newpath } bind def
/W { clip } bind def
/W* { eoclip } bind def
/BT { } bind def
/ET { } bind def
/BDC { mark 3 1 roll /BDC pdfmark } bind def
/EMC { mark /EMC pdfmark } bind def
/cairo_store_point { /cairo_point_y exch def /cairo_point_x exch def } def
/Tj { show currentpoint cairo_store_point } bind def
/TJ {
  {
    dup
    type /stringtype eq
    { show } { -0.001 mul 0 cairo_font_matrix dtransform rmoveto } ifelse
  } forall
  currentpoint cairo_store_point
} bind def
/cairo_selectfont { cairo_font_matrix aload pop pop pop 0 0 6 array astore
    cairo_font exch selectfont cairo_point_x cairo_point_y moveto } bind def
/Tf { pop /cairo_font exch def /cairo_font_matrix where
      { pop cairo_selectfont } if } bind def
/Td { matrix translate cairo_font_matrix matrix concatmatrix dup
      /cairo_font_matrix exch def dup 4 get exch 5 get cairo_store_point
      /cairo_font where { pop cairo_selectfont } if } bind def
/Tm { 2 copy 8 2 roll 6 array astore /cairo_font_matrix exch def
      cairo_store_point /cairo_font where { pop cairo_selectfont } if } bind def
/g { setgray } bind def
/rg { setrgbcolor } bind def
/d1 { setcachedevice } bind def
/cairo_data_source {
  CairoDataIndex CairoData length lt
    { CairoData CairoDataIndex get /CairoDataIndex CairoDataIndex 1 add def }
    { () } ifelse
} def
/cairo_flush_ascii85_file { cairo_ascii85_file status { cairo_ascii85_file flushfile } if } def
/cairo_image { image cairo_flush_ascii85_file } def
/cairo_imagemask { imagemask cairo_flush_ascii85_file } def
%%EndProlog
%%BeginSetup
%%EndSetup
%%Page: 1 1
%%BeginPageSetup
%%PageBoundingBox: 0 0 315 17
%%EndPageSetup
q 0 0 315 17 rectclip
1 0 0 -1 0 17 cm q
0 g
0 16.504 m 0 15.699 l 0.535 15.688 0.969 15.648 1.301 15.586 c 1.633 15.52
 1.891 15.402 2.074 15.227 c 2.258 15.047 2.379 14.809 2.445 14.504 c 2.508
 14.203 2.539 13.797 2.539 13.289 c 2.539 3.43 l 2.539 2.934 2.516 2.535
 2.465 2.23 c 2.414 1.93 2.316 1.688 2.168 1.512 c 2.02 1.336 1.805 1.215
 1.523 1.152 c 1.242 1.09 0.875 1.043 0.422 1.016 c 0.422 0.211 l 7.852 
0.211 l 9.121 0.211 10.293 0.422 11.375 0.848 c 12.453 1.27 13.383 1.855
 14.168 2.602 c 14.949 3.352 15.559 4.238 15.996 5.27 c 16.434 6.297 16.652
 7.422 16.652 8.633 c 16.652 9.789 16.449 10.852 16.039 11.816 c 15.629 
12.785 15.055 13.613 14.316 14.305 c 13.574 14.996 12.688 15.535 11.66 15.922
 c 10.629 16.312 9.5 16.504 8.273 16.504 c h
5.121 1.25 m 4.883 1.25 4.762 1.367 4.762 1.609 c 4.762 13.055 l 4.762 
14.664 5.812 15.469 7.914 15.469 c 9.848 15.469 11.328 14.895 12.359 13.742
 c 13.387 12.594 13.902 10.906 13.902 8.676 c 13.902 7.504 13.762 6.461 
13.48 5.543 c 13.195 4.629 12.793 3.852 12.262 3.215 c 11.734 2.582 11.094
 2.094 10.348 1.758 c 9.602 1.418 8.754 1.25 7.809 1.25 c h
5.121 1.25 m f
27.535 7.555 m 28.297 7.555 28.938 7.508 29.453 7.418 c 29.965 7.324 30.375
 7.18 30.68 6.984 c 30.98 6.785 31.199 6.531 31.336 6.223 c 31.469 5.91 
31.535 5.543 31.535 5.121 c 32.277 5.121 l 32.277 10.898 l 31.535 10.898
 l 31.535 10.473 31.477 10.109 31.355 9.797 c 31.234 9.488 31.023 9.23 30.723
 9.023 c 30.418 8.82 30.008 8.664 29.492 8.559 c 28.98 8.453 28.328 8.402
 27.535 8.402 c 27.535 13.184 l 27.535 13.648 27.594 14.031 27.707 14.336
 c 27.82 14.641 28.012 14.887 28.289 15.078 c 28.562 15.266 28.926 15.402
 29.379 15.48 c 29.828 15.555 30.387 15.594 31.051 15.594 c 31.797 15.594
 32.434 15.543 32.953 15.438 c 33.477 15.332 33.914 15.152 34.266 14.898
 c 34.617 14.645 34.902 14.309 35.113 13.891 c 35.324 13.477 35.5 12.957
 35.641 12.336 c 36.445 12.336 l 36.129 16.504 l 22.988 16.504 l 22.988 
15.699 l 23.48 15.688 23.879 15.645 24.184 15.574 c 24.484 15.504 24.723
 15.383 24.891 15.215 c 25.062 15.047 25.172 14.805 25.23 14.496 c 25.285
 14.184 25.316 13.781 25.316 13.289 c 25.316 3.43 l 25.316 2.934 25.289 
2.535 25.242 2.234 c 25.191 1.93 25.094 1.688 24.945 1.512 c 24.797 1.336
 24.582 1.215 24.301 1.152 c 24.016 1.09 23.648 1.043 23.199 1.016 c 23.199
 0.211 l 35.43 0.211 l 35.621 3.938 l 34.879 3.938 l 34.793 3.371 34.656
 2.91 34.465 2.551 c 34.277 2.191 34.016 1.906 33.684 1.691 c 33.352 1.48
 32.934 1.332 32.426 1.25 c 31.918 1.164 31.305 1.121 30.582 1.121 c 27.895
 1.121 l 27.656 1.121 27.535 1.242 27.535 1.48 c h
27.535 7.555 m f
57.082 9.945 m 57.082 11.059 56.973 12.039 56.754 12.887 c 56.535 13.734
 56.184 14.438 55.699 15.004 c 55.211 15.566 54.578 15.992 53.805 16.281
 c 53.027 16.57 52.09 16.715 50.988 16.715 c 49.945 16.715 49.035 16.613
 48.258 16.41 c 47.484 16.207 46.836 15.867 46.312 15.395 c 45.789 14.922
 45.402 14.305 45.148 13.543 c 44.895 12.781 44.77 11.844 44.77 10.727 c
 44.77 5.141 l 44.77 4.098 44.742 3.293 44.695 2.73 c 44.645 2.164 44.5 
1.75 44.262 1.48 c 44.09 1.297 43.863 1.176 43.574 1.109 c 43.285 1.047 
42.898 1.016 42.418 1.016 c 42.418 0.211 l 49.637 0.211 l 49.637 1.016 l
 49.156 1.016 48.766 1.043 48.473 1.102 c 48.176 1.156 47.941 1.297 47.773
 1.523 c 47.574 1.777 47.449 2.184 47.391 2.742 c 47.336 3.297 47.309 4.098
 47.309 5.141 c 47.309 10.898 l 47.309 11.617 47.383 12.254 47.531 12.812
 c 47.68 13.371 47.922 13.844 48.258 14.23 c 48.598 14.617 49.039 14.91 
49.582 15.109 c 50.125 15.305 50.793 15.406 51.582 15.406 c 52.992 15.406
 54.051 15.012 54.758 14.23 c 55.461 13.449 55.812 12.293 55.812 10.77 c
 55.812 5.672 l 55.812 4.414 55.766 3.465 55.664 2.812 c 55.566 2.164 55.383
 1.707 55.117 1.438 c 54.918 1.254 54.672 1.141 54.375 1.09 c 54.078 1.039
 53.711 1.016 53.273 1.016 c 53.273 0.211 l 59.41 0.211 l 59.41 1.016 l 
58.961 1.016 58.59 1.051 58.301 1.121 c 58.012 1.191 57.781 1.348 57.613
 1.586 c 57.402 1.883 57.262 2.344 57.188 2.973 c 57.117 3.602 57.082 4.5
 57.082 5.672 c h
57.082 9.945 m f
65.535 11.531 m 66.316 11.531 l 66.414 12.168 66.602 12.738 66.879 13.246
 c 67.152 13.754 67.496 14.184 67.914 14.539 c 68.332 14.891 68.809 15.16
 69.352 15.352 c 69.895 15.543 70.484 15.637 71.121 15.637 c 72.164 15.637
 72.988 15.391 73.594 14.898 c 74.203 14.402 74.504 13.734 74.504 12.887
 c 74.504 12.535 74.445 12.211 74.324 11.914 c 74.207 11.617 74.004 11.332
 73.723 11.055 c 73.441 10.781 73.062 10.508 72.59 10.242 c 72.117 9.973
 71.523 9.684 70.801 9.375 c 69.93 8.992 69.195 8.625 68.602 8.273 c 68.008
 7.922 67.535 7.555 67.184 7.172 c 66.832 6.793 66.582 6.387 66.434 5.957
 c 66.285 5.527 66.211 5.035 66.211 4.484 c 66.211 3.836 66.328 3.238 66.559
 2.688 c 66.793 2.137 67.121 1.66 67.543 1.258 c 67.969 0.855 68.469 0.547
 69.047 0.328 c 69.625 0.109 70.258 0 70.949 0 c 71.57 0 72.148 0.098 72.688
 0.297 c 73.223 0.492 73.766 0.812 74.316 1.25 c 74.867 0.297 l 75.352 0.297
 l 75.586 4.508 l 74.801 4.508 l 74.465 3.352 73.973 2.488 73.332 1.926 
c 72.688 1.359 71.918 1.078 71.016 1.078 c 70.152 1.078 69.469 1.289 68.961
 1.715 c 68.453 2.137 68.199 2.707 68.199 3.43 c 68.199 3.766 68.258 4.074
 68.367 4.348 c 68.48 4.625 68.664 4.883 68.918 5.133 c 69.172 5.379 69.504
 5.625 69.914 5.871 c 70.324 6.117 70.832 6.375 71.438 6.645 c 72.48 7.109
 73.348 7.543 74.039 7.945 c 74.73 8.348 75.281 8.75 75.691 9.152 c 76.102
 9.555 76.391 9.977 76.559 10.422 c 76.727 10.867 76.812 11.363 76.812 11.914
 c 76.812 12.617 76.672 13.266 76.391 13.859 c 76.105 14.453 75.711 14.961
 75.203 15.383 c 74.695 15.809 74.09 16.137 73.383 16.367 c 72.68 16.602
 71.902 16.715 71.055 16.715 c 70.254 16.715 69.531 16.605 68.887 16.379
 c 68.246 16.152 67.594 15.773 66.93 15.234 c 66.336 16.273 l 65.852 16.273
 l h
65.535 11.531 m f
101.816 13.266 m 105.539 4.082 l 105.754 3.562 105.902 3.152 105.984 2.855
 c 106.07 2.559 106.113 2.293 106.113 2.051 c 106.113 1.672 105.996 1.402
 105.762 1.25 c 105.531 1.094 105.098 1.016 104.461 1.016 c 104.461 0.211
 l 109.605 0.211 l 109.605 1.016 l 109.277 1.059 109 1.113 108.77 1.184 
c 108.535 1.254 108.332 1.355 108.152 1.48 c 107.977 1.609 107.824 1.773
 107.688 1.977 c 107.555 2.184 107.426 2.434 107.297 2.73 c 101.562 16.715
 l 100.82 16.715 l 95.363 3.535 l 95.18 3.109 95 2.742 94.824 2.434 c 94.648
 2.125 94.453 1.871 94.242 1.672 c 94.031 1.473 93.789 1.324 93.523 1.227
 c 93.254 1.129 92.938 1.066 92.57 1.035 c 92.57 0.211 l 99.469 0.211 l 
99.469 1.035 l 99.074 1.035 98.75 1.055 98.504 1.09 c 98.258 1.125 98.062
 1.18 97.922 1.258 c 97.781 1.336 97.684 1.434 97.625 1.543 c 97.57 1.656
 97.543 1.785 97.543 1.926 c 97.543 2.125 97.578 2.352 97.648 2.613 c 97.719
 2.875 97.852 3.25 98.051 3.746 c h
101.816 13.266 m f
129.121 9.945 m 129.121 11.059 129.012 12.039 128.793 12.887 c 128.574 
13.734 128.223 14.438 127.734 15.004 c 127.246 15.566 126.617 15.992 125.84
 16.281 c 125.066 16.57 124.125 16.715 123.027 16.715 c 121.98 16.715 121.074
 16.613 120.297 16.41 c 119.52 16.207 118.871 15.867 118.352 15.395 c 117.828
 14.922 117.441 14.305 117.188 13.543 c 116.934 12.781 116.805 11.844 116.805
 10.727 c 116.805 5.141 l 116.805 4.098 116.781 3.293 116.73 2.73 c 116.684
 2.164 116.535 1.75 116.297 1.48 c 116.129 1.297 115.898 1.176 115.609 1.109
 c 115.32 1.047 114.938 1.016 114.457 1.016 c 114.457 0.211 l 121.672 0.211
 l 121.672 1.016 l 121.191 1.016 120.805 1.043 120.508 1.102 c 120.211 1.156
 119.98 1.297 119.809 1.523 c 119.613 1.777 119.484 2.184 119.43 2.742 c
 119.371 3.297 119.344 4.098 119.344 5.141 c 119.344 10.898 l 119.344 11.617
 119.418 12.254 119.566 12.812 c 119.715 13.371 119.957 13.844 120.297 14.23
 c 120.637 14.617 121.074 14.91 121.617 15.109 c 122.164 15.305 122.828 
15.406 123.617 15.406 c 125.031 15.406 126.086 15.012 126.793 14.23 c 127.5
 13.449 127.852 12.293 127.852 10.77 c 127.852 5.672 l 127.852 4.414 127.801
 3.465 127.703 2.812 c 127.605 2.164 127.422 1.707 127.152 1.438 c 126.953
 1.254 126.707 1.141 126.41 1.09 c 126.117 1.039 125.75 1.016 125.312 1.016
 c 125.312 0.211 l 131.449 0.211 l 131.449 1.016 l 130.996 1.016 130.625
 1.051 130.336 1.121 c 130.047 1.191 129.82 1.348 129.648 1.586 c 129.438
 1.883 129.297 2.344 129.227 2.973 c 129.156 3.602 129.121 4.5 129.121 5.672
 c h
129.121 9.945 m f
151.094 16.504 m 137.422 16.504 l 137.422 15.699 l 137.918 15.688 138.316
 15.645 138.617 15.574 c 138.922 15.504 139.156 15.383 139.328 15.215 c 
139.496 15.047 139.609 14.805 139.664 14.496 c 139.723 14.184 139.75 13.781
 139.75 13.289 c 139.75 3.43 l 139.75 2.934 139.727 2.535 139.676 2.23 c
 139.625 1.93 139.527 1.688 139.379 1.512 c 139.23 1.336 139.016 1.215 138.734
 1.152 c 138.453 1.09 138.086 1.043 137.633 1.016 c 137.633 0.211 l 144.066
 0.211 l 144.066 1.016 l 143.617 1.031 143.254 1.07 142.977 1.145 c 142.703
 1.215 142.492 1.34 142.344 1.523 c 142.195 1.707 142.094 1.961 142.047 
2.285 c 141.996 2.609 141.973 3.039 141.973 3.574 c 141.973 12.695 l 141.973
 13.289 142.031 13.773 142.152 14.145 c 142.273 14.52 142.477 14.809 142.766
 15.012 c 143.055 15.219 143.438 15.359 143.918 15.438 c 144.398 15.516 
145.004 15.555 145.738 15.555 c 146.543 15.555 147.219 15.508 147.77 15.414
 c 148.32 15.324 148.781 15.16 149.156 14.93 c 149.531 14.695 149.824 14.371
 150.043 13.957 c 150.262 13.539 150.449 13 150.605 12.336 c 151.41 12.336
 l h
151.094 16.504 m f
170.586 4.254 m 169.719 4.254 l 169.68 3.648 169.578 3.141 169.426 2.73
 c 169.27 2.32 169.047 2 168.758 1.766 c 168.469 1.535 168.105 1.367 167.668
 1.27 c 167.23 1.172 166.707 1.121 166.102 1.121 c 165.578 1.121 165.16 
1.133 164.844 1.152 c 164.523 1.176 164.281 1.215 164.113 1.27 c 163.941
 1.324 163.836 1.395 163.785 1.469 c 163.734 1.547 163.711 1.652 163.711
 1.777 c 163.711 13.098 l 163.711 13.551 163.742 13.938 163.805 14.262 c
 163.871 14.586 163.996 14.852 164.188 15.055 c 164.379 15.262 164.652 15.414
 165.012 15.52 c 165.371 15.625 165.848 15.688 166.441 15.699 c 166.441 
16.504 l 158.441 16.504 l 158.441 15.699 l 159.035 15.688 159.516 15.625
 159.879 15.52 c 160.246 15.414 160.527 15.262 160.715 15.055 c 160.906 
14.852 161.035 14.586 161.098 14.262 c 161.16 13.938 161.191 13.551 161.191
 13.098 c 161.191 1.777 l 161.191 1.652 161.168 1.547 161.117 1.469 c 161.07
 1.395 160.969 1.324 160.82 1.27 c 160.676 1.215 160.465 1.176 160.199 1.152
 c 159.93 1.133 159.57 1.121 159.117 1.121 c 158.57 1.121 158.059 1.145 
157.586 1.184 c 157.113 1.227 156.703 1.352 156.355 1.555 c 156.012 1.762
 155.734 2.074 155.523 2.496 c 155.309 2.922 155.195 3.504 155.184 4.254
 c 154.398 4.254 l 154.398 0.211 l 170.375 0.211 l h
170.586 4.254 m f
199.781 0.211 m 200.375 0.211 l 200.566 5.078 l 199.781 5.078 l 199.473
 3.836 198.871 2.863 197.984 2.16 c 197.094 1.453 196.023 1.102 194.766 
1.102 c 193.906 1.102 193.137 1.27 192.461 1.609 c 191.785 1.945 191.211
 2.434 190.746 3.066 c 190.281 3.703 189.926 4.48 189.68 5.395 c 189.43 
6.312 189.309 7.352 189.309 8.508 c 189.309 10.777 189.781 12.523 190.727
 13.742 c 191.672 14.965 193.039 15.574 194.832 15.574 c 197.555 15.574 
199.301 14.129 200.078 11.234 c 200.945 11.234 l 200.945 16.504 l 200.207
 16.504 l 199.719 14.832 l 198.238 16.09 196.445 16.715 194.344 16.715 c
 193.145 16.715 192.062 16.527 191.094 16.145 c 190.129 15.766 189.305 15.227
 188.621 14.527 c 187.938 13.828 187.406 12.977 187.031 11.977 c 186.66 
10.977 186.473 9.859 186.473 8.633 c 186.473 7.352 186.668 6.18 187.066 
5.121 c 187.461 4.062 188.012 3.152 188.727 2.391 c 189.438 1.629 190.293
 1.039 191.285 0.625 c 192.281 0.207 193.379 0 194.578 0 c 195.422 0 196.219
 0.121 196.969 0.359 c 197.715 0.598 198.527 0.988 199.402 1.523 c h
199.781 0.211 m f
216.906 10.602 m 211.258 10.602 l 211.02 11.18 210.812 11.691 210.645 12.137
 c 210.477 12.578 210.336 12.965 210.23 13.289 c 210.125 13.613 210.051 
13.887 210.008 14.113 c 209.969 14.34 209.945 14.523 209.945 14.664 c 209.945
 15.059 210.074 15.332 210.328 15.48 c 210.582 15.625 211.004 15.699 211.598
 15.699 c 211.598 16.504 l 206.453 16.504 l 206.453 15.699 l 206.777 15.66
 207.059 15.602 207.289 15.531 c 207.523 15.461 207.727 15.363 207.902 15.234
 c 208.082 15.109 208.234 14.941 208.371 14.738 c 208.504 14.535 208.633
 14.285 208.762 13.988 c 214.262 0.211 l 215.172 0.211 l 219.977 12.145 
l 220.301 12.938 220.582 13.566 220.824 14.039 c 221.062 14.512 221.297 
14.867 221.52 15.109 c 221.746 15.348 221.988 15.504 222.25 15.574 c 222.512
 15.645 222.824 15.68 223.191 15.68 c 223.191 16.504 l 216.293 16.504 l 
216.293 15.68 l 217.043 15.68 217.555 15.609 217.84 15.469 c 218.121 15.328
 218.262 15.094 218.262 14.77 c 218.262 14.629 218.254 14.5 218.242 14.379
 c 218.227 14.258 218.203 14.129 218.168 13.988 c 218.133 13.848 218.082
 13.688 218.02 13.512 c 217.957 13.336 217.875 13.125 217.773 12.887 c h
211.68 9.543 m 216.504 9.543 l 214.156 3.301 l h
211.68 9.543 m f
241.25 4.297 m 241.25 5.043 241.129 5.715 240.891 6.305 c 240.648 6.898
 240.273 7.398 239.758 7.809 c 239.242 8.219 238.574 8.535 237.746 8.762
 c 236.922 8.984 235.918 9.098 234.73 9.098 c 232.828 9.098 l 232.828 13.184
 l 232.828 13.703 232.859 14.133 232.922 14.465 c 232.984 14.793 233.121
 15.051 233.324 15.234 c 233.527 15.418 233.824 15.543 234.215 15.605 c 
234.602 15.668 235.113 15.699 235.746 15.699 c 235.746 16.504 l 228.277 
16.504 l 228.277 15.699 l 228.773 15.688 229.172 15.645 229.473 15.574 c
 229.777 15.504 230.012 15.383 230.184 15.215 c 230.352 15.047 230.465 14.805
 230.52 14.496 c 230.578 14.184 230.605 13.781 230.605 13.289 c 230.605 
3.43 l 230.605 2.934 230.582 2.535 230.531 2.23 c 230.48 1.93 230.383 1.688
 230.234 1.512 c 230.086 1.336 229.871 1.215 229.59 1.152 c 229.309 1.09
 228.941 1.043 228.488 1.016 c 228.488 0.211 l 235.133 0.211 l 237.082 0.211
 238.586 0.57 239.652 1.289 c 240.715 2.012 241.25 3.012 241.25 4.297 c 
h
232.828 8.039 m 234.328 8.039 l 235.742 8.039 236.789 7.77 237.473 7.227
 c 238.156 6.684 238.5 5.789 238.5 4.551 c 238.5 3.352 238.227 2.492 237.684
 1.977 c 237.141 1.465 236.289 1.207 235.133 1.207 c 233.188 1.207 l 232.945
 1.207 232.828 1.324 232.828 1.566 c h
232.828 8.039 m f
251.773 12.504 m 251.773 13.211 251.801 13.77 251.859 14.176 c 251.914 
14.586 252.023 14.902 252.184 15.129 c 252.348 15.355 252.582 15.504 252.883
 15.574 c 253.188 15.645 253.586 15.688 254.078 15.699 c 254.078 16.504 
l 247.223 16.504 l 247.223 15.699 l 247.719 15.688 248.117 15.641 248.418
 15.562 c 248.723 15.484 248.957 15.34 249.129 15.129 c 249.297 14.918 249.41
 14.617 249.465 14.23 c 249.523 13.844 249.551 13.316 249.551 12.652 c 249.551
 4.062 l 249.551 3.469 249.527 2.98 249.477 2.594 c 249.426 2.203 249.328
 1.898 249.18 1.672 c 249.031 1.445 248.816 1.289 248.535 1.195 c 248.254
 1.105 247.887 1.043 247.434 1.016 c 247.434 0.211 l 253.867 0.211 l 253.867
 1.016 l 253.418 1.031 253.055 1.086 252.777 1.184 c 252.504 1.285 252.293
 1.449 252.145 1.684 c 251.996 1.914 251.895 2.234 251.848 2.645 c 251.797
 3.055 251.773 3.574 251.773 4.211 c h
251.773 12.504 m f
276.094 4.254 m 275.227 4.254 l 275.184 3.648 275.086 3.141 274.93 2.73
 c 274.773 2.32 274.551 2 274.262 1.766 c 273.973 1.535 273.609 1.367 273.172
 1.27 c 272.734 1.172 272.215 1.121 271.605 1.121 c 271.086 1.121 270.664
 1.133 270.348 1.152 c 270.031 1.176 269.789 1.215 269.617 1.27 c 269.449
 1.324 269.34 1.395 269.289 1.469 c 269.242 1.547 269.215 1.652 269.215 
1.777 c 269.215 13.098 l 269.215 13.551 269.246 13.938 269.312 14.262 c 
269.375 14.586 269.5 14.852 269.691 15.055 c 269.883 15.262 270.156 15.414
 270.516 15.52 c 270.879 15.625 271.352 15.688 271.945 15.699 c 271.945 
16.504 l 263.945 16.504 l 263.945 15.699 l 264.539 15.688 265.02 15.625 
265.387 15.52 c 265.754 15.414 266.031 15.262 266.223 15.055 c 266.414 14.852
 266.539 14.586 266.602 14.262 c 266.668 13.938 266.699 13.551 266.699 13.098
 c 266.699 1.777 l 266.699 1.652 266.672 1.547 266.625 1.469 c 266.574 1.395
 266.477 1.324 266.328 1.27 c 266.18 1.215 265.973 1.176 265.703 1.152 c
 265.434 1.133 265.074 1.121 264.625 1.121 c 264.074 1.121 263.562 1.145
 263.09 1.184 c 262.617 1.227 262.207 1.352 261.863 1.555 c 261.516 1.762
 261.238 2.074 261.027 2.496 c 260.816 2.922 260.703 3.504 260.688 4.254
 c 259.906 4.254 l 259.906 0.211 l 275.883 0.211 l h
276.094 4.254 m f
289.645 10.602 m 283.992 10.602 l 283.754 11.18 283.547 11.691 283.379 
12.137 c 283.211 12.578 283.074 12.965 282.965 13.289 c 282.859 13.613 282.785
 13.887 282.746 14.113 c 282.703 14.34 282.68 14.523 282.68 14.664 c 282.68
 15.059 282.809 15.332 283.062 15.48 c 283.316 15.625 283.738 15.699 284.332
 15.699 c 284.332 16.504 l 279.191 16.504 l 279.191 15.699 l 279.516 15.66
 279.793 15.602 280.027 15.531 c 280.258 15.461 280.461 15.363 280.641 15.234
 c 280.816 15.109 280.969 14.941 281.105 14.738 c 281.238 14.535 281.371
 14.285 281.496 13.988 c 286.996 0.211 l 287.906 0.211 l 292.711 12.145 
l 293.035 12.938 293.316 13.566 293.559 14.039 c 293.797 14.512 294.031 
14.867 294.254 15.109 c 294.48 15.348 294.727 15.504 294.984 15.574 c 295.246
 15.645 295.562 15.68 295.926 15.68 c 295.926 16.504 l 289.027 16.504 l 
289.027 15.68 l 289.777 15.68 290.293 15.609 290.574 15.469 c 290.855 15.328
 290.996 15.094 290.996 14.77 c 290.996 14.629 290.988 14.5 290.977 14.379
 c 290.961 14.258 290.938 14.129 290.902 13.988 c 290.867 13.848 290.816
 13.688 290.754 13.512 c 290.691 13.336 290.609 13.125 290.512 12.887 c 
h
284.418 9.543 m 289.242 9.543 l 286.891 3.301 l h
284.418 9.543 m f
314.684 16.504 m 301.012 16.504 l 301.012 15.699 l 301.508 15.688 301.906
 15.645 302.207 15.574 c 302.512 15.504 302.75 15.383 302.918 15.215 c 303.086
 15.047 303.199 14.805 303.258 14.496 c 303.312 14.184 303.34 13.781 303.34
 13.289 c 303.34 3.43 l 303.34 2.934 303.316 2.535 303.266 2.23 c 303.219
 1.93 303.117 1.688 302.969 1.512 c 302.82 1.336 302.605 1.215 302.324 1.152
 c 302.043 1.09 301.676 1.043 301.227 1.016 c 301.227 0.211 l 307.656 0.211
 l 307.656 1.016 l 307.207 1.031 306.844 1.07 306.566 1.145 c 306.293 1.215
 306.082 1.34 305.934 1.523 c 305.785 1.707 305.688 1.961 305.637 2.285 
c 305.586 2.609 305.562 3.039 305.562 3.574 c 305.562 12.695 l 305.562 13.289
 305.621 13.773 305.742 14.145 c 305.863 14.52 306.066 14.809 306.355 15.012
 c 306.645 15.219 307.031 15.359 307.508 15.438 c 307.988 15.516 308.594
 15.555 309.328 15.555 c 310.133 15.555 310.809 15.508 311.359 15.414 c 
311.91 15.324 312.371 15.16 312.746 14.93 c 313.121 14.695 313.418 14.371
 313.637 13.957 c 313.855 13.539 314.039 13 314.195 12.336 c 315 12.336 
l h
314.684 16.504 m f
Q Q
showpage
%%Trailer
end
%%EOF
